EESchema Schematic File Version 4
LIBS:controller-cache
EELAYER 26 0
EELAYER END
$Descr A4 11693 8268
encoding utf-8
Sheet 2 5
Title "Rozširujúci modul k Raspberry Pi 2"
Date "2019-05-15"
Rev "0.1"
Comp ""
Comment1 "Rozhranie CAN"
Comment2 ""
Comment3 ""
Comment4 ""
$EndDescr
$Comp
L controller-rescue:MCP2551-I_SN U2
U 1 1 5C703B6F
P 7100 3400
F 0 "U2" H 6700 3750 50  0000 L CNN
F 1 "MCP2551-I/SN" H 7200 3750 50  0000 L CNN
F 2 "Housings_SOIC:SOIC-8_3.9x4.9mm_Pitch1.27mm" H 7100 2900 50  0001 C CIN
F 3 "" H 7100 3400 50  0001 C CNN
F 4 "TME:MCP2551-I/SN" H 50  650 50  0001 C CNN "Shop"
	1    7100 3400
	1    0    0    -1  
$EndComp
$Comp
L power:GND #PWR03
U 1 1 5C703C0A
P 4250 4650
F 0 "#PWR03" H 4250 4400 50  0001 C CNN
F 1 "GND" H 4250 4500 50  0000 C CNN
F 2 "" H 4250 4650 50  0001 C CNN
F 3 "" H 4250 4650 50  0001 C CNN
	1    4250 4650
	1    0    0    -1  
$EndComp
$Comp
L power:GND #PWR06
U 1 1 5C703C3C
P 7100 3950
F 0 "#PWR06" H 7100 3700 50  0001 C CNN
F 1 "GND" H 7100 3800 50  0000 C CNN
F 2 "" H 7100 3950 50  0001 C CNN
F 3 "" H 7100 3950 50  0001 C CNN
	1    7100 3950
	1    0    0    -1  
$EndComp
Wire Wire Line
	7100 3800 7100 3850
Wire Wire Line
	4250 4650 4250 4500
Wire Wire Line
	4850 3200 5700 3200
Wire Wire Line
	6600 3300 6300 3300
Wire Wire Line
	6300 3300 6300 3100
Wire Wire Line
	6300 3100 5700 3100
Wire Wire Line
	3650 4000 3250 4000
Wire Wire Line
	2800 3900 3650 3900
Wire Wire Line
	4250 1950 4250 2050
$Comp
L controller-rescue:C C3
U 1 1 5C70431D
P 4550 2200
F 0 "C3" V 4500 2000 50  0000 L CNN
F 1 "100n" V 4500 2300 50  0000 L CNN
F 2 "Capacitors_SMD:C_1206_HandSoldering" H 4588 2050 50  0001 C CNN
F 3 "" H 4550 2200 50  0001 C CNN
F 4 "GME:905-081" H 50  650 50  0001 C CNN "Shop"
	1    4550 2200
	0    1    1    0   
$EndComp
Wire Wire Line
	4400 2200 4250 2200
Connection ~ 4250 2200
$Comp
L controller-rescue:CP C4
U 1 1 5C70448A
P 4550 2500
F 0 "C4" V 4600 2650 50  0000 L CNN
F 1 "10u" V 4600 2250 50  0000 L CNN
F 2 "Capacitors_SMD:CP_Elec_4x5.3" H 4588 2350 50  0001 C CNN
F 3 "" H 4550 2500 50  0001 C CNN
F 4 "TME:RC1C106M04005VR" H 50  650 50  0001 C CNN "Shop"
	1    4550 2500
	0    -1   -1   0   
$EndComp
Wire Wire Line
	4400 2500 4250 2500
Connection ~ 4250 2500
Wire Wire Line
	4700 2500 4900 2500
Wire Wire Line
	4900 2200 4900 2500
Wire Wire Line
	4900 2200 4700 2200
$Comp
L power:GND #PWR04
U 1 1 5C704679
P 4900 2600
F 0 "#PWR04" H 4900 2350 50  0001 C CNN
F 1 "GND" H 4900 2450 50  0000 C CNN
F 2 "" H 4900 2600 50  0001 C CNN
F 3 "" H 4900 2600 50  0001 C CNN
	1    4900 2600
	1    0    0    -1  
$EndComp
Connection ~ 4900 2500
$Comp
L controller-rescue:R R1
U 1 1 5C7047DF
P 5100 2350
F 0 "R1" H 5250 2400 50  0000 C CNN
F 1 "10k" H 5250 2300 50  0000 C CNN
F 2 "Resistors_SMD:R_1206_HandSoldering" V 5030 2350 50  0001 C CNN
F 3 "" H 5100 2350 50  0001 C CNN
F 4 "GME:900-508" H 50  650 50  0001 C CNN "Shop"
	1    5100 2350
	1    0    0    -1  
$EndComp
Wire Wire Line
	5100 2200 5100 2050
Wire Wire Line
	5100 2050 4250 2050
Connection ~ 4250 2050
Wire Wire Line
	4850 4300 5100 4300
Wire Wire Line
	5100 4300 5100 2500
Text GLabel 5300 3700 2    55   Input ~ 0
CAN_INT
Wire Wire Line
	4850 3700 5250 3700
Text GLabel 3400 3100 0    55   Input ~ 0
MOSI
Text GLabel 3400 3200 0    55   Input ~ 0
MISO
Text GLabel 3400 3300 0    55   Input ~ 0
SS_CAN
Text GLabel 3400 3400 0    55   Input ~ 0
SCK
Wire Wire Line
	3650 3400 3400 3400
Wire Wire Line
	3400 3300 3500 3300
Wire Wire Line
	3650 3200 3400 3200
Wire Wire Line
	3400 3100 3650 3100
Wire Wire Line
	7100 3850 6500 3850
Wire Wire Line
	6500 3850 6500 3600
Wire Wire Line
	6500 3600 6600 3600
Connection ~ 7100 3850
$Comp
L power:+5V #PWR05
U 1 1 5C704DC5
P 7100 2050
F 0 "#PWR05" H 7100 1900 50  0001 C CNN
F 1 "+5V" H 7100 2190 50  0000 C CNN
F 2 "" H 7100 2050 50  0001 C CNN
F 3 "" H 7100 2050 50  0001 C CNN
	1    7100 2050
	1    0    0    -1  
$EndComp
Wire Wire Line
	7100 2050 7100 2300
$Comp
L controller-rescue:C C5
U 1 1 5C70510B
P 7400 2300
F 0 "C5" V 7350 2100 50  0000 L CNN
F 1 "100n" V 7350 2400 50  0000 L CNN
F 2 "Capacitors_SMD:C_1206_HandSoldering" H 7438 2150 50  0001 C CNN
F 3 "" H 7400 2300 50  0001 C CNN
F 4 "GME:905-081" H 50  650 50  0001 C CNN "Shop"
	1    7400 2300
	0    1    1    0   
$EndComp
Wire Wire Line
	7250 2300 7100 2300
Connection ~ 7100 2300
$Comp
L controller-rescue:CP C6
U 1 1 5C705113
P 7400 2600
F 0 "C6" V 7450 2700 50  0000 L CNN
F 1 "22u" V 7450 2150 50  0000 L CNN
F 2 "Capacitors_SMD:CP_Elec_4x5.3" H 7438 2450 50  0001 C CNN
F 3 "" H 7400 2600 50  0001 C CNN
F 4 "TME:RC0J226M04005VR" H 50  650 50  0001 C CNN "Shop"
	1    7400 2600
	0    -1   -1   0   
$EndComp
Wire Wire Line
	7250 2600 7100 2600
Connection ~ 7100 2600
Wire Wire Line
	7550 2600 7950 2600
Wire Wire Line
	7550 2300 7950 2300
$Comp
L power:GND #PWR07
U 1 1 5C70511E
P 7950 2700
F 0 "#PWR07" H 7950 2450 50  0001 C CNN
F 1 "GND" H 7950 2550 50  0000 C CNN
F 2 "" H 7950 2700 50  0001 C CNN
F 3 "" H 7950 2700 50  0001 C CNN
	1    7950 2700
	1    0    0    -1  
$EndComp
Wire Wire Line
	7950 2300 7950 2600
Connection ~ 7950 2600
Text GLabel 9150 3100 2    55   Input ~ 0
CAN_H
Wire Wire Line
	7600 3300 8200 3300
Text GLabel 9150 3500 2    55   Input ~ 0
CAN_L
Wire Wire Line
	7600 3500 8100 3500
$Comp
L power:+3V3 #PWR02
U 1 1 5C706C77
P 4250 1950
F 0 "#PWR02" H 4250 1800 50  0001 C CNN
F 1 "+3V3" H 4250 2090 50  0000 C CNN
F 2 "" H 4250 1950 50  0001 C CNN
F 3 "" H 4250 1950 50  0001 C CNN
	1    4250 1950
	1    0    0    -1  
$EndComp
$Comp
L controller-rescue:Conn_01x01 J7
U 1 1 5C747231
P 5950 2900
F 0 "J7" H 5950 3000 50  0000 C CNN
F 1 "Conn_01x01" H 5950 2800 50  0000 C CNN
F 2 "Pin_Headers:Pin_Header_Straight_1x01_Pitch2.54mm" H 5950 2900 50  0001 C CNN
F 3 "" H 5950 2900 50  0001 C CNN
	1    5950 2900
	1    0    0    -1  
$EndComp
$Comp
L controller-rescue:Conn_01x01 J8
U 1 1 5C7472D3
P 5950 3350
F 0 "J8" H 5950 3450 50  0000 C CNN
F 1 "Conn_01x01" H 5950 3250 50  0000 C CNN
F 2 "Pin_Headers:Pin_Header_Straight_1x01_Pitch2.54mm" H 5950 3350 50  0001 C CNN
F 3 "" H 5950 3350 50  0001 C CNN
	1    5950 3350
	1    0    0    -1  
$EndComp
Wire Wire Line
	5750 3350 5700 3350
Wire Wire Line
	5700 3350 5700 3200
Connection ~ 5700 3200
Wire Wire Line
	5750 2900 5700 2900
Wire Wire Line
	5700 2900 5700 3100
Connection ~ 5700 3100
$Comp
L controller-rescue:Conn_01x02 J4
U 1 1 5C7473E9
P 5900 3900
F 0 "J4" H 5900 3700 50  0000 C CNN
F 1 "Conn_01x02" H 5900 4000 50  0000 C CNN
F 2 "Pin_Headers:Pin_Header_Straight_1x02_Pitch2.54mm" H 5900 3900 50  0001 C CNN
F 3 "" H 5900 3900 50  0001 C CNN
	1    5900 3900
	1    0    0    1   
$EndComp
Wire Wire Line
	5700 3900 4850 3900
Wire Wire Line
	5700 3800 4850 3800
$Comp
L controller-rescue:Conn_01x02 J5
U 1 1 5C74770C
P 5900 4300
F 0 "J5" H 5900 4100 50  0000 C CNN
F 1 "Conn_01x02" H 5900 4400 50  0000 C CNN
F 2 "Pin_Headers:Pin_Header_Straight_1x02_Pitch2.54mm" H 5900 4300 50  0001 C CNN
F 3 "" H 5900 4300 50  0001 C CNN
	1    5900 4300
	1    0    0    1   
$EndComp
Wire Wire Line
	5700 4200 5650 4200
Wire Wire Line
	5650 4200 5650 4000
Wire Wire Line
	5650 4000 4850 4000
Wire Wire Line
	4850 4100 5550 4100
Wire Wire Line
	5550 4100 5550 4300
Wire Wire Line
	5550 4300 5700 4300
$Comp
L controller-rescue:Conn_01x01 J6
U 1 1 5C747823
P 5900 4600
F 0 "J6" H 5900 4700 50  0000 C CNN
F 1 "Conn_01x01" H 5900 4500 50  0000 C CNN
F 2 "Pin_Headers:Pin_Header_Straight_1x01_Pitch2.54mm" H 5900 4600 50  0001 C CNN
F 3 "" H 5900 4600 50  0001 C CNN
	1    5900 4600
	1    0    0    -1  
$EndComp
Wire Wire Line
	5700 4600 5450 4600
Wire Wire Line
	5450 4600 5450 4200
Wire Wire Line
	5450 4200 4850 4200
$Comp
L controller-rescue:Conn_01x01 J1
U 1 1 5C7479E9
P 2300 4100
F 0 "J1" H 2300 4200 50  0000 C CNN
F 1 "Conn_01x01" H 2300 4000 50  0000 C CNN
F 2 "Pin_Headers:Pin_Header_Straight_1x01_Pitch2.54mm" H 2300 4100 50  0001 C CNN
F 3 "" H 2300 4100 50  0001 C CNN
	1    2300 4100
	-1   0    0    -1  
$EndComp
$Comp
L controller-rescue:MCP2515-I_ST U1
U 1 1 5C70397E
P 4250 3700
F 0 "U1" H 3850 4475 50  0000 R CNN
F 1 "MCP2515-I/ST" H 5000 4500 50  0000 R TNN
F 2 "Housings_SSOP:TSSOP-20_4.4x6.5mm_Pitch0.65mm" H 4250 2800 50  0001 C CIN
F 3 "" H 4350 2900 50  0001 C CNN
F 4 "GME:959-360" H 4250 3700 50  0001 C CNN "Shop"
	1    4250 3700
	1    0    0    -1  
$EndComp
Wire Wire Line
	3650 4100 2500 4100
$Comp
L controller-rescue:Conn_01x02 J9
U 1 1 5C74DC5A
P 8200 3800
F 0 "J9" V 8300 3750 50  0000 C CNN
F 1 "Conn_01x02" V 8400 3750 50  0000 C CNN
F 2 "Pin_Headers:Pin_Header_Straight_1x02_Pitch2.54mm" H 8200 3800 50  0001 C CNN
F 3 "" H 8200 3800 50  0001 C CNN
	1    8200 3800
	0    1    1    0   
$EndComp
Wire Wire Line
	8200 3600 8200 3300
Connection ~ 8200 3300
Wire Wire Line
	8100 3600 8100 3500
Connection ~ 8100 3500
$Comp
L controller-rescue:Conn_01x01 J2
U 1 1 5C751AF9
P 3500 2550
F 0 "J2" V 3700 2550 50  0000 C CNN
F 1 "Conn_01x01" V 3600 2550 50  0000 C CNN
F 2 "Pin_Headers:Pin_Header_Straight_1x01_Pitch2.54mm" H 3500 2550 50  0001 C CNN
F 3 "" H 3500 2550 50  0001 C CNN
	1    3500 2550
	0    -1   -1   0   
$EndComp
Wire Wire Line
	3500 2750 3500 3300
Connection ~ 3500 3300
$Comp
L controller-rescue:Conn_01x01 J3
U 1 1 5C751D4E
P 5250 2800
F 0 "J3" V 5450 2800 50  0000 C CNN
F 1 "Conn_01x01" V 5350 2650 50  0000 C CNN
F 2 "Pin_Headers:Pin_Header_Straight_1x01_Pitch2.54mm" H 5250 2800 50  0001 C CNN
F 3 "" H 5250 2800 50  0001 C CNN
	1    5250 2800
	0    -1   -1   0   
$EndComp
Wire Wire Line
	5250 3000 5250 3700
Connection ~ 5250 3700
$Comp
L controller-rescue:R R2
U 1 1 5C75E268
P 8750 3300
F 0 "R2" H 8900 3350 50  0000 C CNN
F 1 "120" H 8900 3250 50  0000 C CNN
F 2 "Resistors_SMD:R_1206_HandSoldering" V 8680 3300 50  0001 C CNN
F 3 "" H 8750 3300 50  0001 C CNN
F 4 "GME:900-232" H 50  650 50  0001 C CNN "Shop"
	1    8750 3300
	1    0    0    -1  
$EndComp
Wire Wire Line
	8500 3300 8500 3100
Wire Wire Line
	8500 3100 8750 3100
Wire Wire Line
	8750 3100 8750 3150
Wire Wire Line
	8750 3500 8750 3450
Connection ~ 8750 3500
Connection ~ 8750 3100
NoConn ~ 6600 3500
Wire Wire Line
	3250 5050 3250 5000
$Comp
L power:GND #PWR01
U 1 1 5C703E54
P 3050 5200
F 0 "#PWR01" H 3050 4950 50  0001 C CNN
F 1 "GND" H 3050 5050 50  0000 C CNN
F 2 "" H 3050 5200 50  0001 C CNN
F 3 "" H 3050 5200 50  0001 C CNN
	1    3050 5200
	1    0    0    -1  
$EndComp
Wire Wire Line
	2800 5000 2800 5050
Connection ~ 2800 4400
Connection ~ 3250 4400
Wire Wire Line
	3250 4000 3250 4400
Wire Wire Line
	3250 4400 3150 4400
Wire Wire Line
	2850 4400 2800 4400
Wire Wire Line
	2800 3900 2800 4400
$Comp
L controller-rescue:C C1
U 1 1 5C703DE5
P 2800 4850
F 0 "C1" H 2825 4950 50  0000 L CNN
F 1 "22p" H 2825 4750 50  0000 L CNN
F 2 "Capacitors_SMD:C_1206_HandSoldering" H 2838 4700 50  0001 C CNN
F 3 "" H 2800 4850 50  0001 C CNN
F 4 "GME:905-099" H 50  650 50  0001 C CNN "Shop"
	1    2800 4850
	1    0    0    -1  
$EndComp
Connection ~ 3050 5050
Wire Wire Line
	3050 5200 3050 5050
Wire Wire Line
	2800 5050 3050 5050
$Comp
L controller-rescue:C C2
U 1 1 5C703D6E
P 3250 4850
F 0 "C2" H 3275 4950 50  0000 L CNN
F 1 "22p" H 3275 4750 50  0000 L CNN
F 2 "Capacitors_SMD:C_1206_HandSoldering" H 3288 4700 50  0001 C CNN
F 3 "" H 3250 4850 50  0001 C CNN
F 4 "GME:905-099" H 50  650 50  0001 C CNN "Shop"
	1    3250 4850
	1    0    0    -1  
$EndComp
$Comp
L controller-rescue:Crystal Y1
U 1 1 5C703CDC
P 3000 4400
F 0 "Y1" H 3000 4550 50  0000 C CNN
F 1 "8MHz" H 3000 4250 50  0000 C CNN
F 2 "Crystals:Crystal_SMD_HC49-SD_HandSoldering" H 3000 4400 50  0001 C CNN
F 3 "" H 3000 4400 50  0001 C CNN
F 4 "GME:970-023" H 50  650 50  0001 C CNN "Shop"
	1    3000 4400
	1    0    0    -1  
$EndComp
Wire Wire Line
	4250 2200 4250 2500
Wire Wire Line
	4250 2500 4250 2900
Wire Wire Line
	4900 2500 4900 2600
Wire Wire Line
	4250 2050 4250 2200
Wire Wire Line
	7100 3850 7100 3950
Wire Wire Line
	7100 2300 7100 2600
Wire Wire Line
	7100 2600 7100 3000
Wire Wire Line
	7950 2600 7950 2700
Wire Wire Line
	5700 3200 6600 3200
Wire Wire Line
	5700 3100 4850 3100
Wire Wire Line
	8200 3300 8500 3300
Wire Wire Line
	8100 3500 8750 3500
Wire Wire Line
	3500 3300 3650 3300
Wire Wire Line
	5250 3700 5300 3700
Wire Wire Line
	8750 3500 9150 3500
Wire Wire Line
	8750 3100 9150 3100
Wire Wire Line
	2800 4400 2800 4700
Wire Wire Line
	3250 4400 3250 4700
Wire Wire Line
	3050 5050 3250 5050
$EndSCHEMATC
