EESchema Schematic File Version 4
LIBS:controller-cache
EELAYER 26 0
EELAYER END
$Descr A4 11693 8268
encoding utf-8
Sheet 3 5
Title "Rozširujúci modul k Raspberry Pi 2"
Date "2019-05-15"
Rev "0.1"
Comp ""
Comment1 "Rozhranie OpenTherm"
Comment2 ""
Comment3 ""
Comment4 ""
$EndDescr
$Comp
L controller-rescue:ATMEGA328-AU U3
U 1 1 5C706049
P 2450 3400
AR Path="/5C706049" Ref="U3"  Part="1" 
AR Path="/5C705895/5C706049" Ref="U3"  Part="1" 
F 0 "U3" H 1700 4650 50  0000 L BNN
F 1 "ATMEGA328-AU" H 2850 2000 50  0000 L BNN
F 2 "Housings_QFP:TQFP-32_7x7mm_Pitch0.8mm" H 2450 3400 50  0001 C CIN
F 3 "" H 2450 3400 50  0001 C CNN
F 4 "TME:ATMEGA328-AU" H -350 0   50  0001 C CNN "Shop"
	1    2450 3400
	1    0    0    -1  
$EndComp
$Comp
L power:GND #PWR010
U 1 1 5C7063DB
P 1500 4800
F 0 "#PWR010" H 1500 4550 50  0001 C CNN
F 1 "GND" H 1500 4650 50  0000 C CNN
F 2 "" H 1500 4800 50  0001 C CNN
F 3 "" H 1500 4800 50  0001 C CNN
	1    1500 4800
	1    0    0    -1  
$EndComp
Text GLabel 3550 3550 2    55   Input ~ 0
SDA
Text GLabel 3550 3650 2    55   Input ~ 0
SCL
$Comp
L controller-rescue:R R5
U 1 1 5C7067E6
P 7000 5450
F 0 "R5" V 6900 5400 50  0000 C CNN
F 1 "10k" V 7100 5450 50  0000 C CNN
F 2 "Resistors_SMD:R_1206_HandSoldering" V 6930 5450 50  0001 C CNN
F 3 "" H 7000 5450 50  0001 C CNN
F 4 "GME:900-508" H -350 0   50  0001 C CNN "Shop"
	1    7000 5450
	0    1    1    0   
$EndComp
$Comp
L power:GND #PWR020
U 1 1 5C7068D4
P 6750 6050
F 0 "#PWR020" H 6750 5800 50  0001 C CNN
F 1 "GND" H 6750 5900 50  0000 C CNN
F 2 "" H 6750 6050 50  0001 C CNN
F 3 "" H 6750 6050 50  0001 C CNN
	1    6750 6050
	1    0    0    -1  
$EndComp
$Comp
L controller-rescue:SW_Push SW1
U 1 1 5C706970
P 6750 5700
F 0 "SW1" H 6800 5800 50  0000 L CNN
F 1 "SW_Push" H 6750 5640 50  0000 C CNN
F 2 "Buttons_Switches_SMD:SW_SPST_PTS645" H 6750 5900 50  0001 C CNN
F 3 "" H 6750 5900 50  0001 C CNN
F 4 "TME:PTS645SM43SMTR92LF" H -350 0   50  0001 C CNN "Shop"
	1    6750 5700
	0    1    1    0   
$EndComp
$Comp
L controller-rescue:PC827 U4
U 1 1 5C706A35
P 6000 3000
F 0 "U4" H 5800 3200 50  0000 L CNN
F 1 "PC827" H 6000 3200 50  0000 L CNN
F 2 "Housings_DIP:DIP-8_W7.62mm" H 5800 2800 50  0001 L CIN
F 3 "" H 6000 3000 50  0001 L CNN
F 4 "GME:523-055" H -350 0   50  0001 C CNN "Shop"
	1    6000 3000
	1    0    0    -1  
$EndComp
$Comp
L controller-rescue:PC827 U4
U 2 1 5C706B12
P 6000 3750
F 0 "U4" H 5800 3950 50  0000 L CNN
F 1 "PC827" H 6000 3950 50  0000 L CNN
F 2 "Housings_DIP:DIP-8_W7.62mm" H 5800 3550 50  0001 L CIN
F 3 "" H 6000 3750 50  0001 L CNN
F 4 "GME:523-055" H -350 0   50  0001 C CNN "Shop"
	2    6000 3750
	-1   0    0    -1  
$EndComp
$Comp
L power:+3V3 #PWR09
U 1 1 5C706BCE
P 1500 1850
F 0 "#PWR09" H 1500 1700 50  0001 C CNN
F 1 "+3V3" H 1500 1990 50  0000 C CNN
F 2 "" H 1500 1850 50  0001 C CNN
F 3 "" H 1500 1850 50  0001 C CNN
	1    1500 1850
	1    0    0    -1  
$EndComp
$Comp
L power:+3V3 #PWR018
U 1 1 5C706D2B
P 5600 3600
F 0 "#PWR018" H 5600 3450 50  0001 C CNN
F 1 "+3V3" H 5600 3740 50  0000 C CNN
F 2 "" H 5600 3600 50  0001 C CNN
F 3 "" H 5600 3600 50  0001 C CNN
	1    5600 3600
	1    0    0    -1  
$EndComp
$Comp
L power:GND #PWR017
U 1 1 5C706D74
P 5600 3200
F 0 "#PWR017" H 5600 2950 50  0001 C CNN
F 1 "GND" H 5600 3050 50  0000 C CNN
F 2 "" H 5600 3200 50  0001 C CNN
F 3 "" H 5600 3200 50  0001 C CNN
	1    5600 3200
	1    0    0    -1  
$EndComp
$Comp
L controller-rescue:R R3
U 1 1 5C706DF6
P 5400 2900
F 0 "R3" V 5300 2900 50  0000 C CNN
F 1 "1k5" V 5500 2900 50  0000 C CNN
F 2 "Resistors_SMD:R_1206_HandSoldering" V 5330 2900 50  0001 C CNN
F 3 "" H 5400 2900 50  0001 C CNN
F 4 "GME:900-214" H -350 0   50  0001 C CNN "Shop"
	1    5400 2900
	0    1    1    0   
$EndComp
$Comp
L controller-rescue:R R4
U 1 1 5C706F08
P 5650 4150
F 0 "R4" H 5800 4200 50  0000 C CNN
F 1 "330" H 5800 4100 50  0000 C CNN
F 2 "Resistors_SMD:R_1206_HandSoldering" V 5580 4150 50  0001 C CNN
F 3 "" H 5650 4150 50  0001 C CNN
F 4 "GME:900-310" H -350 0   50  0001 C CNN "Shop"
	1    5650 4150
	1    0    0    -1  
$EndComp
$Comp
L power:GND #PWR019
U 1 1 5C707065
P 5650 4400
F 0 "#PWR019" H 5650 4150 50  0001 C CNN
F 1 "GND" H 5650 4250 50  0000 C CNN
F 2 "" H 5650 4400 50  0001 C CNN
F 3 "" H 5650 4400 50  0001 C CNN
	1    5650 4400
	1    0    0    -1  
$EndComp
$Comp
L controller-rescue:D_Zener D1
U 1 1 5C707184
P 6600 3900
F 0 "D1" V 6550 4050 50  0000 C CNN
F 1 "4V3" V 6650 4050 50  0000 C CNN
F 2 "Diodes_SMD:D_MiniMELF_Handsoldering" H 6600 3900 50  0001 C CNN
F 3 "" H 6600 3900 50  0001 C CNN
F 4 "GME:919-026" H -350 0   50  0001 C CNN "Shop"
	1    6600 3900
	0    1    1    0   
$EndComp
$Comp
L controller-rescue:D_Zener D2
U 1 1 5C7072B6
P 6950 3900
F 0 "D2" V 6900 4050 50  0000 C CNN
F 1 "15V" V 7000 4050 50  0000 C CNN
F 2 "Diodes_SMD:D_MiniMELF_Handsoldering" H 6950 3900 50  0001 C CNN
F 3 "" H 6950 3900 50  0001 C CNN
F 4 "GME:919-006" H -350 0   50  0001 C CNN "Shop"
	1    6950 3900
	0    1    1    0   
$EndComp
$Comp
L controller-rescue:BC856 Q1
U 1 1 5C70744A
P 7500 2900
F 0 "Q1" H 7700 2850 50  0000 L CNN
F 1 "BC856" H 7700 2950 50  0000 L CNN
F 2 "TO_SOT_Packages_SMD:SOT-23_Handsoldering" H 7700 2825 50  0001 L CIN
F 3 "" H 7500 2900 50  0001 L CNN
F 4 "GME:912-030" H -350 0   50  0001 C CNN "Shop"
	1    7500 2900
	1    0    0    1   
$EndComp
$Comp
L controller-rescue:R R6
U 1 1 5C70760F
P 7300 2600
F 0 "R6" V 7200 2600 50  0000 C CNN
F 1 "330" V 7400 2600 50  0000 C CNN
F 2 "Resistors_SMD:R_1206_HandSoldering" V 7230 2600 50  0001 C CNN
F 3 "" H 7300 2600 50  0001 C CNN
F 4 "GME:900-310" H -350 0   50  0001 C CNN "Shop"
	1    7300 2600
	0    1    1    0   
$EndComp
$Comp
L controller-rescue:R R7
U 1 1 5C7077DA
P 7600 3350
F 0 "R7" H 7750 3400 50  0000 C CNN
F 1 "220" H 7750 3300 50  0000 C CNN
F 2 "Resistors_SMD:R_1206_HandSoldering" V 7530 3350 50  0001 C CNN
F 3 "" H 7600 3350 50  0001 C CNN
F 4 "GME:900-295" H -350 0   50  0001 C CNN "Shop"
	1    7600 3350
	1    0    0    -1  
$EndComp
$Comp
L controller-rescue:R R8
U 1 1 5C707823
P 7600 3900
F 0 "R8" H 7750 3950 50  0000 C CNN
F 1 "100" H 7750 3850 50  0000 C CNN
F 2 "Resistors_SMD:R_1206_HandSoldering" V 7530 3900 50  0001 C CNN
F 3 "" H 7600 3900 50  0001 C CNN
F 4 "GME:900-192" H -350 0   50  0001 C CNN "Shop"
	1    7600 3900
	1    0    0    -1  
$EndComp
$Comp
L controller-rescue:D D4
U 1 1 5C742459
P 8350 2600
F 0 "D4" H 8350 2800 50  0000 C CNN
F 1 "1N4148" H 8350 2700 50  0000 C CNN
F 2 "Diodes_SMD:D_MiniMELF_Handsoldering" H 8350 2600 50  0001 C CNN
F 3 "" H 8350 2600 50  0001 C CNN
F 4 "GME:917-001" H -350 0   50  0001 C CNN "Shop"
	1    8350 2600
	1    0    0    -1  
$EndComp
$Comp
L controller-rescue:D D5
U 1 1 5C742685
P 8350 2750
F 0 "D5" H 8350 2950 50  0000 C CNN
F 1 "1N4148" H 8350 2850 50  0000 C CNN
F 2 "Diodes_SMD:D_MiniMELF_Handsoldering" H 8350 2750 50  0001 C CNN
F 3 "" H 8350 2750 50  0001 C CNN
F 4 "GME:917-001" H -350 0   50  0001 C CNN "Shop"
	1    8350 2750
	1    0    0    1   
$EndComp
$Comp
L controller-rescue:D D7
U 1 1 5C7427EC
P 9000 3150
F 0 "D7" V 8950 3300 50  0000 C CNN
F 1 "1N4148" V 9050 3400 50  0000 C CNN
F 2 "Diodes_SMD:D_MiniMELF_Handsoldering" H 9000 3150 50  0001 C CNN
F 3 "" H 9000 3150 50  0001 C CNN
F 4 "GME:917-001" H -350 0   50  0001 C CNN "Shop"
	1    9000 3150
	0    1    1    0   
$EndComp
$Comp
L controller-rescue:D D6
U 1 1 5C74296E
P 8850 3150
F 0 "D6" V 8800 3300 50  0000 C CNN
F 1 "1N4148" V 8900 3400 50  0000 C CNN
F 2 "Diodes_SMD:D_MiniMELF_Handsoldering" H 8850 3150 50  0001 C CNN
F 3 "" H 8850 3150 50  0001 C CNN
F 4 "GME:917-001" H -350 0   50  0001 C CNN "Shop"
	1    8850 3150
	0    -1   1    0   
$EndComp
$Comp
L controller-rescue:D_Zener D3
U 1 1 5C7429CB
P 8000 3900
F 0 "D3" V 7950 4050 50  0000 C CNN
F 1 "4V7" V 8050 4050 50  0000 C CNN
F 2 "Diodes_SMD:D_MiniMELF_Handsoldering" H 8000 3900 50  0001 C CNN
F 3 "" H 8000 3900 50  0001 C CNN
F 4 "GME:919-012" H -350 0   50  0001 C CNN "Shop"
	1    8000 3900
	0    1    1    0   
$EndComp
$Comp
L controller-rescue:Conn_01x02 J21
U 1 1 5C7430E3
P 10650 2600
F 0 "J21" H 10650 2700 50  0000 C CNN
F 1 "Conn_01x02" H 10650 2400 50  0000 C CNN
F 2 "Pin_Headers:Pin_Header_Straight_1x02_Pitch2.54mm" H 10650 2600 50  0001 C CNN
F 3 "" H 10650 2600 50  0001 C CNN
	1    10650 2600
	1    0    0    -1  
$EndComp
$Comp
L controller-rescue:Crystal Y2
U 1 1 5C74339E
P 8150 5450
F 0 "Y2" H 8150 5150 50  0000 C CNN
F 1 "8MHz" H 8150 5250 50  0000 C CNN
F 2 "Crystals:Crystal_SMD_HC49-SD_HandSoldering" H 8150 5450 50  0001 C CNN
F 3 "" H 8150 5450 50  0001 C CNN
F 4 "GME:970-023" H -350 0   50  0001 C CNN "Shop"
	1    8150 5450
	-1   0    0    1   
$EndComp
$Comp
L controller-rescue:C C9
U 1 1 5C743DAC
P 8400 5700
F 0 "C9" H 8425 5800 50  0000 L CNN
F 1 "22p" H 8425 5600 50  0000 L CNN
F 2 "Capacitors_SMD:C_1206_HandSoldering" H 8438 5550 50  0001 C CNN
F 3 "" H 8400 5700 50  0001 C CNN
F 4 "GME:905-099" H -350 0   50  0001 C CNN "Shop"
	1    8400 5700
	1    0    0    -1  
$EndComp
$Comp
L controller-rescue:C C8
U 1 1 5C743F70
P 7900 5700
F 0 "C8" H 7925 5800 50  0000 L CNN
F 1 "22p" H 7925 5600 50  0000 L CNN
F 2 "Capacitors_SMD:C_1206_HandSoldering" H 7938 5550 50  0001 C CNN
F 3 "" H 7900 5700 50  0001 C CNN
F 4 "GME:905-099" H -350 0   50  0001 C CNN "Shop"
	1    7900 5700
	1    0    0    -1  
$EndComp
$Comp
L power:GND #PWR024
U 1 1 5C7442D1
P 10200 5650
F 0 "#PWR024" H 10200 5400 50  0001 C CNN
F 1 "GND" H 10200 5500 50  0000 C CNN
F 2 "" H 10200 5650 50  0001 C CNN
F 3 "" H 10200 5650 50  0001 C CNN
	1    10200 5650
	1    0    0    -1  
$EndComp
$Comp
L controller-rescue:C C7
U 1 1 5C74510E
P 1400 3100
F 0 "C7" H 1425 3200 50  0000 L CNN
F 1 "10n" H 1425 3000 50  0000 L CNN
F 2 "Capacitors_SMD:C_1206_HandSoldering" H 1438 2950 50  0001 C CNN
F 3 "" H 1400 3100 50  0001 C CNN
F 4 "GME:905-111" H -350 0   50  0001 C CNN "Shop"
	1    1400 3100
	1    0    0    -1  
$EndComp
$Comp
L power:GND #PWR08
U 1 1 5C7451E7
P 1400 3350
F 0 "#PWR08" H 1400 3100 50  0001 C CNN
F 1 "GND" H 1400 3200 50  0000 C CNN
F 2 "" H 1400 3350 50  0001 C CNN
F 3 "" H 1400 3350 50  0001 C CNN
	1    1400 3350
	1    0    0    -1  
$EndComp
$Comp
L controller-rescue:Conn_01x03 J16
U 1 1 5C745E80
P 5850 5200
F 0 "J16" H 5850 5000 50  0000 C CNN
F 1 "Conn_01x03" H 5850 5400 50  0000 C CNN
F 2 "Pin_Headers:Pin_Header_Straight_1x03_Pitch2.54mm" H 5850 5200 50  0001 C CNN
F 3 "" H 5850 5200 50  0001 C CNN
	1    5850 5200
	1    0    0    1   
$EndComp
$Comp
L power:GND #PWR016
U 1 1 5C7461B3
P 5500 5450
F 0 "#PWR016" H 5500 5200 50  0001 C CNN
F 1 "GND" H 5500 5300 50  0000 C CNN
F 2 "" H 5500 5450 50  0001 C CNN
F 3 "" H 5500 5450 50  0001 C CNN
	1    5500 5450
	1    0    0    -1  
$EndComp
$Comp
L controller-rescue:Conn_01x01 J14
U 1 1 5C74658B
P 5050 4300
F 0 "J14" H 5050 4400 50  0000 C CNN
F 1 "Conn_01x01" H 5050 4200 50  0000 C CNN
F 2 "Pin_Headers:Pin_Header_Straight_1x01_Pitch2.54mm" H 5050 4300 50  0001 C CNN
F 3 "" H 5050 4300 50  0001 C CNN
	1    5050 4300
	1    0    0    -1  
$EndComp
$Comp
L controller-rescue:Conn_01x01 J15
U 1 1 5C7466F6
P 5450 2300
F 0 "J15" H 5450 2400 50  0000 C CNN
F 1 "Conn_01x01" H 5450 2200 50  0000 C CNN
F 2 "Pin_Headers:Pin_Header_Straight_1x01_Pitch2.54mm" H 5450 2300 50  0001 C CNN
F 3 "" H 5450 2300 50  0001 C CNN
	1    5450 2300
	1    0    0    -1  
$EndComp
$Comp
L controller-rescue:Conn_01x02 J18
U 1 1 5C746AAA
P 9700 2250
F 0 "J18" V 9900 2200 50  0000 C CNN
F 1 "Conn_01x02" V 9800 2200 50  0000 C CNN
F 2 "Pin_Headers:Pin_Header_Straight_1x02_Pitch2.54mm" H 9700 2250 50  0001 C CNN
F 3 "" H 9700 2250 50  0001 C CNN
	1    9700 2250
	0    -1   -1   0   
$EndComp
$Comp
L power:+3V3 #PWR021
U 1 1 5C74863E
P 7200 5200
F 0 "#PWR021" H 7200 5050 50  0001 C CNN
F 1 "+3V3" H 7200 5340 50  0000 C CNN
F 2 "" H 7200 5200 50  0001 C CNN
F 3 "" H 7200 5200 50  0001 C CNN
	1    7200 5200
	1    0    0    -1  
$EndComp
$Comp
L controller-rescue:AVR-ISP-10 CON1
U 1 1 5C7494B3
P 4600 1300
F 0 "CON1" H 4430 1630 50  0000 C CNN
F 1 "AVR-ISP-10" H 4260 970 50  0000 L BNN
F 2 "Pin_Headers:Pin_Header_Straight_2x05_Pitch2.54mm" V 3850 1350 50  0001 C CNN
F 3 "" H 4600 1300 50  0001 C CNN
F 4 "TME:ZL202-10G" H -350 0   50  0001 C CNN "Shop"
	1    4600 1300
	1    0    0    -1  
$EndComp
$Comp
L power:GND #PWR015
U 1 1 5C749C27
P 5000 1650
F 0 "#PWR015" H 5000 1400 50  0001 C CNN
F 1 "GND" H 5000 1500 50  0000 C CNN
F 2 "" H 5000 1650 50  0001 C CNN
F 3 "" H 5000 1650 50  0001 C CNN
	1    5000 1650
	1    0    0    -1  
$EndComp
Wire Wire Line
	1500 1850 1500 2300
Wire Wire Line
	1500 4400 1500 4500
Wire Wire Line
	1500 4600 1550 4600
Wire Wire Line
	1500 4500 1550 4500
Connection ~ 1500 4600
Wire Wire Line
	1500 4400 1550 4400
Connection ~ 1500 4500
Wire Wire Line
	1550 2300 1500 2300
Connection ~ 1500 2300
Wire Wire Line
	1550 2400 1500 2400
Connection ~ 1500 2400
Wire Wire Line
	1500 2600 1550 2600
Wire Wire Line
	3450 2800 4100 2800
Wire Wire Line
	3450 2600 3900 2600
Wire Wire Line
	3450 2700 4000 2700
Wire Wire Line
	3450 3150 4300 3150
Wire Wire Line
	3550 3550 3450 3550
Wire Wire Line
	3550 3650 3450 3650
Wire Wire Line
	7200 5450 7150 5450
Wire Wire Line
	7200 5200 7200 5450
Connection ~ 6750 5450
Wire Wire Line
	6750 5900 6750 6050
Wire Wire Line
	5700 3650 5600 3650
Wire Wire Line
	5600 3650 5600 3600
Wire Wire Line
	5600 3200 5600 3100
Wire Wire Line
	5600 3100 5700 3100
Wire Wire Line
	5700 2900 5550 2900
Wire Wire Line
	5250 2900 5150 2900
Wire Wire Line
	5150 2900 5150 2300
Wire Wire Line
	3450 2300 5150 2300
Wire Wire Line
	5650 4000 5650 3850
Wire Wire Line
	5550 3850 5650 3850
Wire Wire Line
	5650 4400 5650 4300
Wire Wire Line
	3450 4100 4800 4100
Wire Wire Line
	5550 4100 5550 3850
Connection ~ 5650 3850
Wire Wire Line
	6300 3100 6600 3100
Wire Wire Line
	6600 3100 6600 3750
Wire Wire Line
	6600 4050 6600 4100
Wire Wire Line
	6350 4100 6600 4100
Wire Wire Line
	6350 4100 6350 3850
Wire Wire Line
	6350 3850 6300 3850
Wire Wire Line
	6950 2600 6950 2900
Wire Wire Line
	6300 2900 6950 2900
Wire Wire Line
	6950 4100 6950 4050
Connection ~ 6600 4100
Wire Wire Line
	6950 2600 7150 2600
Connection ~ 6950 2900
Wire Wire Line
	7600 2700 7600 2600
Wire Wire Line
	7450 2600 7600 2600
Wire Wire Line
	7600 4100 7600 4050
Connection ~ 6950 4100
Wire Wire Line
	7600 3100 7600 3150
Wire Wire Line
	7600 3500 7600 3650
Wire Wire Line
	7600 3650 6300 3650
Connection ~ 7600 3650
Connection ~ 7600 2600
Wire Wire Line
	8200 2750 8100 2750
Wire Wire Line
	8100 2750 8100 2600
Connection ~ 8100 2600
Wire Wire Line
	8000 4100 8000 4050
Connection ~ 7600 4100
Wire Wire Line
	8000 3750 8000 3150
Wire Wire Line
	8000 3150 7600 3150
Connection ~ 7600 3150
Wire Wire Line
	8850 3000 8850 2600
Wire Wire Line
	9000 2750 9000 3000
Connection ~ 8850 2600
Connection ~ 9000 2750
Wire Wire Line
	8850 4100 8850 3300
Connection ~ 8000 4100
Wire Wire Line
	9000 4100 9000 3300
Connection ~ 8850 4100
Wire Wire Line
	9150 2700 9800 2700
Wire Wire Line
	8300 5450 8400 5450
Wire Wire Line
	7900 5850 7900 5900
Wire Wire Line
	7900 5900 8400 5900
Wire Wire Line
	8400 5850 8400 5900
Connection ~ 8400 5900
Wire Wire Line
	8400 5350 8400 5450
Wire Wire Line
	7900 5350 7900 5450
Wire Wire Line
	7900 5450 8000 5450
Connection ~ 8400 5450
Connection ~ 7900 5450
Wire Wire Line
	3550 2900 3450 2900
Wire Wire Line
	3450 3000 3550 3000
Wire Wire Line
	1550 2900 1400 2900
Wire Wire Line
	1400 2900 1400 2950
Wire Wire Line
	1400 3250 1400 3350
Wire Wire Line
	6750 5350 6750 5450
Wire Wire Line
	3450 3750 3550 3750
Wire Wire Line
	3550 3900 3450 3900
Wire Wire Line
	3550 4000 3450 4000
Wire Wire Line
	5650 5300 5500 5300
Wire Wire Line
	5500 5300 5500 5450
Wire Wire Line
	5650 5200 5550 5200
Wire Wire Line
	5650 5100 5550 5100
Wire Wire Line
	4850 4300 4800 4300
Wire Wire Line
	4800 4300 4800 4100
Connection ~ 4800 4100
Connection ~ 5150 2300
Connection ~ 9800 2700
Wire Wire Line
	9700 2450 9700 2600
Connection ~ 9700 2600
Wire Wire Line
	4100 2800 4100 1400
Wire Wire Line
	4000 2700 4000 1500
Wire Wire Line
	3900 2600 3900 1200
Wire Wire Line
	4650 1500 5000 1500
Wire Wire Line
	5000 1200 5000 1300
Wire Wire Line
	4650 1400 5000 1400
Connection ~ 5000 1500
Wire Wire Line
	5000 1300 4650 1300
Connection ~ 5000 1400
Wire Wire Line
	5000 1200 4650 1200
Connection ~ 5000 1300
$Comp
L controller-rescue:Conn_01x06 J10
U 1 1 5C74AA99
P 2650 1500
F 0 "J10" H 2650 1000 50  0000 C CNN
F 1 "Conn_01x06" H 2650 1100 50  0000 C CNN
F 2 "Pin_Headers:Pin_Header_Straight_1x06_Pitch2.54mm" H 2650 1500 50  0001 C CNN
F 3 "" H 2650 1500 50  0001 C CNN
	1    2650 1500
	-1   0    0    1   
$EndComp
Wire Wire Line
	2850 1500 4000 1500
Wire Wire Line
	2850 1400 4100 1400
Wire Wire Line
	2850 1300 3800 1300
Connection ~ 4100 1400
Connection ~ 4000 1500
Wire Wire Line
	3450 2500 3800 2500
Wire Wire Line
	3800 2500 3800 1600
Wire Wire Line
	3800 1600 2850 1600
Wire Wire Line
	2850 1200 3900 1200
$Comp
L power:GND #PWR011
U 1 1 5C74BAC7
P 2950 1750
F 0 "#PWR011" H 2950 1500 50  0001 C CNN
F 1 "GND" H 2950 1600 50  0000 C CNN
F 2 "" H 2950 1750 50  0001 C CNN
F 3 "" H 2950 1750 50  0001 C CNN
	1    2950 1750
	1    0    0    -1  
$EndComp
Wire Wire Line
	2850 1700 2950 1700
Wire Wire Line
	2950 1700 2950 1750
Wire Wire Line
	3900 1100 4400 1100
Connection ~ 3900 1200
Wire Wire Line
	3800 1000 3800 1300
Connection ~ 3800 1300
$Comp
L controller-rescue:Conn_01x02 J19
U 1 1 5C74E505
P 10200 2250
F 0 "J19" V 10400 2200 50  0000 C CNN
F 1 "Conn_01x02" V 10300 2200 50  0000 C CNN
F 2 "Pin_Headers:Pin_Header_Straight_1x02_Pitch2.54mm" H 10200 2250 50  0001 C CNN
F 3 "" H 10200 2250 50  0001 C CNN
	1    10200 2250
	0    -1   -1   0   
$EndComp
Connection ~ 10200 2600
Connection ~ 10300 2700
Wire Wire Line
	4150 4300 4250 4300
Wire Wire Line
	4150 4300 4150 4200
Wire Wire Line
	4150 4200 3450 4200
Wire Wire Line
	4250 4400 4050 4400
Wire Wire Line
	4050 4400 4050 4300
Wire Wire Line
	4050 4300 3450 4300
$Comp
L controller-rescue:Conn_01x03 J11
U 1 1 5C74F233
P 4450 4400
F 0 "J11" H 4450 4200 50  0000 C CNN
F 1 "Conn_01x03" H 4450 4600 50  0000 C CNN
F 2 "Pin_Headers:Pin_Header_Straight_1x03_Pitch2.54mm" H 4450 4400 50  0001 C CNN
F 3 "" H 4450 4400 50  0001 C CNN
	1    4450 4400
	1    0    0    1   
$EndComp
$Comp
L controller-rescue:Conn_01x04 J12
U 1 1 5C74F783
P 4450 5400
F 0 "J12" H 4450 5600 50  0000 C CNN
F 1 "Conn_01x04" H 4450 5100 50  0000 C CNN
F 2 "Pin_Headers:Pin_Header_Straight_1x04_Pitch2.54mm" H 4450 5400 50  0001 C CNN
F 3 "" H 4450 5400 50  0001 C CNN
	1    4450 5400
	1    0    0    1   
$EndComp
$Comp
L power:GND #PWR013
U 1 1 5C74F910
P 4200 4700
F 0 "#PWR013" H 4200 4450 50  0001 C CNN
F 1 "GND" H 4200 4550 50  0000 C CNN
F 2 "" H 4200 4700 50  0001 C CNN
F 3 "" H 4200 4700 50  0001 C CNN
	1    4200 4700
	1    0    0    -1  
$EndComp
Wire Wire Line
	4200 4700 4200 4500
Wire Wire Line
	4200 4500 4250 4500
Wire Wire Line
	4250 5200 3950 5200
Wire Wire Line
	3950 5200 3950 4400
Wire Wire Line
	3950 4400 3450 4400
Wire Wire Line
	4250 5300 3850 5300
Wire Wire Line
	3850 5300 3850 4500
Wire Wire Line
	3850 4500 3450 4500
Wire Wire Line
	4250 5400 3750 5400
Wire Wire Line
	3750 5400 3750 4600
Wire Wire Line
	3750 4600 3450 4600
$Comp
L power:GND #PWR012
U 1 1 5C74FE77
P 4150 5650
F 0 "#PWR012" H 4150 5400 50  0001 C CNN
F 1 "GND" H 4150 5500 50  0000 C CNN
F 2 "" H 4150 5650 50  0001 C CNN
F 3 "" H 4150 5650 50  0001 C CNN
	1    4150 5650
	1    0    0    -1  
$EndComp
Wire Wire Line
	4250 5500 4150 5500
Wire Wire Line
	4150 5500 4150 5650
Wire Wire Line
	4300 3150 4300 3050
Connection ~ 4300 3150
Text GLabel 4300 3050 1    55   Input ~ 0
OT_INT
Wire Wire Line
	3450 3250 4400 3250
$Comp
L controller-rescue:Conn_01x05 J13
U 1 1 5C750A06
P 4600 3350
F 0 "J13" H 4600 3050 50  0000 C CNN
F 1 "Conn_01x05" H 4700 3650 50  0000 C CNN
F 2 "Pin_Headers:Pin_Header_Straight_1x05_Pitch2.54mm" H 4600 3350 50  0001 C CNN
F 3 "" H 4600 3350 50  0001 C CNN
	1    4600 3350
	1    0    0    1   
$EndComp
Wire Wire Line
	3450 3350 4400 3350
Wire Wire Line
	4400 3450 3450 3450
$Comp
L power:GND #PWR014
U 1 1 5C750D63
P 4300 3750
F 0 "#PWR014" H 4300 3500 50  0001 C CNN
F 1 "GND" H 4300 3600 50  0000 C CNN
F 2 "" H 4300 3750 50  0001 C CNN
F 3 "" H 4300 3750 50  0001 C CNN
	1    4300 3750
	1    0    0    -1  
$EndComp
Wire Wire Line
	4300 3750 4300 3550
Wire Wire Line
	4300 3550 4400 3550
Text GLabel 3550 4000 2    55   Input ~ 0
OT_TXD
Text GLabel 3550 3900 2    55   Input ~ 0
OT_RXD
Text GLabel 5550 5100 0    55   Input ~ 0
OT_RXD
Text GLabel 5550 5200 0    55   Input ~ 0
OT_TXD
Text GLabel 6750 5350 1    55   Input ~ 0
OT_RST
Text GLabel 3550 3750 2    55   Input ~ 0
OT_RST
Text GLabel 7900 5350 1    55   Input ~ 0
OT_XTAL1
Text GLabel 8400 5350 1    55   Input ~ 0
OT_XTAL2
Text GLabel 3800 1000 1    55   Input ~ 0
OT_RST
Text GLabel 3550 2900 2    55   Input ~ 0
OT_XTAL1
Text GLabel 3550 3000 2    55   Input ~ 0
OT_XTAL2
$Comp
L controller-rescue:G6E K1
U 1 1 5C75845C
P 9750 4100
F 0 "K1" V 10300 4100 50  0000 L CNN
F 1 "G6E" V 10200 4050 50  0000 L CNN
F 2 "Relays_THT:Relay_SPDT_OMRON-G6E" H 10880 4070 50  0001 C CNN
F 3 "" H 9750 4100 50  0001 C CNN
F 4 "TME:G6E-134P-US-5D" H -350 0   50  0001 C CNN "Shop"
	1    9750 4100
	0    -1   -1   0   
$EndComp
Wire Wire Line
	9450 3800 9400 3800
Wire Wire Line
	9400 3800 9400 3450
Wire Wire Line
	9400 3450 10300 3450
$Comp
L controller-rescue:Q_NMOS_GSD Q2
U 1 1 5C758DBB
P 10100 5150
F 0 "Q2" H 10300 5200 50  0000 L CNN
F 1 "2N7002" H 10300 5100 50  0000 L CNN
F 2 "TO_SOT_Packages_SMD:SOT-23_Handsoldering" H 10300 5250 50  0001 C CNN
F 3 "" H 10100 5150 50  0001 C CNN
F 4 "TME:2N7002-LGE" H -350 0   50  0001 C CNN "Shop"
	1    10100 5150
	1    0    0    -1  
$EndComp
Wire Wire Line
	10200 4950 10200 4800
Wire Wire Line
	10200 4300 10050 4300
$Comp
L power:+5V #PWR023
U 1 1 5C75914C
P 9250 4200
F 0 "#PWR023" H 9250 4050 50  0001 C CNN
F 1 "+5V" H 9250 4340 50  0000 C CNN
F 2 "" H 9250 4200 50  0001 C CNN
F 3 "" H 9250 4200 50  0001 C CNN
	1    9250 4200
	1    0    0    -1  
$EndComp
Wire Wire Line
	9450 4300 9250 4300
Wire Wire Line
	9250 4200 9250 4300
$Comp
L controller-rescue:LED D8
U 1 1 5C759377
P 9950 4800
F 0 "D8" H 9950 4700 50  0000 C CNN
F 1 "LED" H 9950 4900 50  0000 C CNN
F 2 "LEDs:LED_1206_HandSoldering" H 9950 4800 50  0001 C CNN
F 3 "" H 9950 4800 50  0001 C CNN
F 4 "GME:960-270" H -350 0   50  0001 C CNN "Shop"
	1    9950 4800
	-1   0    0    1   
$EndComp
Wire Wire Line
	10200 5650 10200 5350
Wire Wire Line
	10100 4800 10200 4800
Connection ~ 10200 4800
$Comp
L controller-rescue:R R9
U 1 1 5C759DC3
P 9550 4800
F 0 "R9" V 9450 4800 50  0000 C CNN
F 1 "270" V 9650 4800 50  0000 C CNN
F 2 "Resistors_SMD:R_1206_HandSoldering" V 9480 4800 50  0001 C CNN
F 3 "" H 9550 4800 50  0001 C CNN
F 4 "GME:900-067" H -350 0   50  0001 C CNN "Shop"
	1    9550 4800
	0    1    1    0   
$EndComp
Wire Wire Line
	9700 4800 9800 4800
Wire Wire Line
	9250 4800 9400 4800
Connection ~ 9250 4300
Text GLabel 9750 5150 0    55   Input ~ 0
OT_RELAY
Wire Wire Line
	9900 5150 9800 5150
$Comp
L controller-rescue:Conn_01x01 J20
U 1 1 5C75A5AA
P 9800 5500
F 0 "J20" V 9900 5500 50  0000 C CNN
F 1 "Conn_01x01" V 10000 5450 50  0000 C CNN
F 2 "Pin_Headers:Pin_Header_Straight_1x01_Pitch2.54mm" H 9800 5500 50  0001 C CNN
F 3 "" H 9800 5500 50  0001 C CNN
	1    9800 5500
	0    1    1    0   
$EndComp
Wire Wire Line
	9800 5300 9800 5150
Connection ~ 9800 5150
Wire Wire Line
	9500 2600 9700 2600
Wire Wire Line
	9800 2450 9800 2700
$Comp
L controller-rescue:R R14
U 1 1 5C75FA2E
P 9350 2600
F 0 "R14" V 9150 2600 50  0000 C CNN
F 1 "0" V 9250 2600 50  0000 C CNN
F 2 "Resistors_SMD:R_1206_HandSoldering" V 9280 2600 50  0001 C CNN
F 3 "" H 9350 2600 50  0001 C CNN
F 4 "GME:900-001" H -350 0   50  0001 C CNN "Shop"
	1    9350 2600
	0    1    1    0   
$EndComp
Wire Wire Line
	9150 2750 9150 2700
Wire Wire Line
	8500 2750 9000 2750
Wire Wire Line
	8500 2600 8850 2600
NoConn ~ 9450 4000
$Comp
L controller-rescue:Conn_01x02 J37
U 1 1 5C761536
P 3400 1800
F 0 "J37" V 3400 1600 50  0000 C CNN
F 1 "Conn_01x02" V 3500 1750 50  0000 C CNN
F 2 "Pin_Headers:Pin_Header_Straight_1x02_Pitch2.54mm" H 3400 1800 50  0001 C CNN
F 3 "" H 3400 1800 50  0001 C CNN
	1    3400 1800
	0    -1   -1   0   
$EndComp
Wire Wire Line
	3500 2000 3500 2400
Wire Wire Line
	3500 2400 3450 2400
Wire Wire Line
	3400 2000 3400 2050
Wire Wire Line
	3400 2050 3100 2050
Wire Wire Line
	3100 2050 3100 1700
Connection ~ 2950 1700
NoConn ~ 1550 3650
NoConn ~ 1550 3750
NoConn ~ 4650 1100
NoConn ~ 4400 1200
$Comp
L power:GND #PWR022
U 1 1 5C7A7E00
P 8400 6000
F 0 "#PWR022" H 8400 5750 50  0001 C CNN
F 1 "GND" H 8400 5850 50  0000 C CNN
F 2 "" H 8400 6000 50  0001 C CNN
F 3 "" H 8400 6000 50  0001 C CNN
	1    8400 6000
	1    0    0    -1  
$EndComp
Wire Wire Line
	6750 5450 6850 5450
Wire Wire Line
	10200 2450 10200 2600
Wire Wire Line
	10300 3450 10300 2700
Wire Wire Line
	10200 3900 10050 3900
Wire Wire Line
	1500 4600 1500 4800
Wire Wire Line
	1500 4500 1500 4600
Wire Wire Line
	1500 2300 1500 2400
Wire Wire Line
	1500 2400 1500 2600
Wire Wire Line
	6750 5450 6750 5500
Wire Wire Line
	5650 3850 5700 3850
Wire Wire Line
	6600 4100 6950 4100
Wire Wire Line
	6950 2900 6950 3750
Wire Wire Line
	6950 2900 7300 2900
Wire Wire Line
	6950 4100 7600 4100
Wire Wire Line
	7600 3650 7600 3750
Wire Wire Line
	7600 2600 8100 2600
Wire Wire Line
	8100 2600 8200 2600
Wire Wire Line
	7600 4100 8000 4100
Wire Wire Line
	7600 3150 7600 3200
Wire Wire Line
	8850 2600 9200 2600
Wire Wire Line
	9000 2750 9150 2750
Wire Wire Line
	8000 4100 8850 4100
Wire Wire Line
	8850 4100 9000 4100
Wire Wire Line
	8400 5900 8400 6000
Wire Wire Line
	8400 5450 8400 5550
Wire Wire Line
	7900 5450 7900 5550
Wire Wire Line
	4800 4100 5550 4100
Wire Wire Line
	5150 2300 5250 2300
Wire Wire Line
	9800 2700 10300 2700
Wire Wire Line
	9700 2600 10200 2600
Wire Wire Line
	5000 1500 5000 1650
Wire Wire Line
	5000 1400 5000 1500
Wire Wire Line
	5000 1300 5000 1400
Wire Wire Line
	4100 1400 4400 1400
Wire Wire Line
	4000 1500 4400 1500
Wire Wire Line
	3900 1200 3900 1100
Wire Wire Line
	3800 1300 4400 1300
Wire Wire Line
	10200 2600 10200 3900
Wire Wire Line
	10200 2600 10450 2600
Wire Wire Line
	10300 2700 10300 2450
Wire Wire Line
	10300 2700 10450 2700
Wire Wire Line
	4300 3150 4400 3150
Wire Wire Line
	10200 4800 10200 4300
Wire Wire Line
	9250 4300 9250 4800
Wire Wire Line
	9800 5150 9750 5150
Wire Wire Line
	2950 1700 3100 1700
$EndSCHEMATC
