EESchema Schematic File Version 4
LIBS:controller-cache
EELAYER 26 0
EELAYER END
$Descr A4 11693 8268
encoding utf-8
Sheet 5 5
Title "Rozširujúci modul k Raspberry Pi 2"
Date "2019-05-15"
Rev "0.1"
Comp ""
Comment1 "Ostatné"
Comment2 ""
Comment3 ""
Comment4 ""
$EndDescr
$Comp
L controller-rescue:Conn_02x20_Odd_Even J32
U 1 1 5C75236A
P 4250 2750
F 0 "J32" H 4300 3750 50  0000 C CNN
F 1 "Conn_02x20_Odd_Even" H 4300 1650 50  0000 C CNN
F 2 "Pin_Headers:Pin_Header_Straight_2x20_Pitch2.54mm" H 4250 2750 50  0001 C CNN
F 3 "" H 4250 2750 50  0001 C CNN
	1    4250 2750
	1    0    0    -1  
$EndComp
$Comp
L controller-rescue:Conn_01x20 J33
U 1 1 5C7523FE
P 7000 2750
F 0 "J33" H 7000 3750 50  0000 C CNN
F 1 "Conn_01x20" H 7150 1650 50  0000 C CNN
F 2 "Pin_Headers:Pin_Header_Straight_1x20_Pitch2.54mm" H 7000 2750 50  0001 C CNN
F 3 "" H 7000 2750 50  0001 C CNN
	1    7000 2750
	1    0    0    -1  
$EndComp
$Comp
L controller-rescue:Conn_01x20 J29
U 1 1 5C7525B9
P 1800 2750
F 0 "J29" H 1800 3750 50  0000 C CNN
F 1 "Conn_01x20" H 1950 1650 50  0000 C CNN
F 2 "Pin_Headers:Pin_Header_Straight_1x20_Pitch2.54mm" H 1800 2750 50  0001 C CNN
F 3 "" H 1800 2750 50  0001 C CNN
	1    1800 2750
	-1   0    0    -1  
$EndComp
Text Label 3750 1850 0    55   ~ 0
RPI_3V3
Text Label 3750 1950 0    55   ~ 0
SDA
Text Label 3750 2050 0    55   ~ 0
SCL
Text Label 3750 2150 0    55   ~ 0
1WIRE
Text Label 3750 2250 0    55   ~ 0
GND
Text Label 3750 2350 0    55   ~ 0
GPIO17
Text Label 3750 2450 0    55   ~ 0
GPIO27
Text Label 3750 2650 0    55   ~ 0
RPI_3V3
Text Label 3750 2750 0    55   ~ 0
MOSI
Text Label 3750 2550 0    55   ~ 0
GPIO22
Text Label 3750 2850 0    55   ~ 0
MISO
Text Label 3750 2950 0    55   ~ 0
SCK
Text Label 3750 3050 0    55   ~ 0
GND
Text Label 3750 3150 0    55   ~ 0
ID_SD
Text Label 3750 3250 0    55   ~ 0
GPIO5
Text Label 3750 3350 0    55   ~ 0
GPIO6
Text Label 3750 3450 0    55   ~ 0
GPIO13
Text Label 3750 3550 0    55   ~ 0
GPIO19
Text Label 3750 3650 0    55   ~ 0
GPIO26
Text Label 3750 3750 0    55   ~ 0
GND
Text Label 4600 3750 0    55   ~ 0
GPIO21
Text Label 4600 3650 0    55   ~ 0
GPO20
Text Label 4600 3550 0    55   ~ 0
GPIO16
Text Label 4600 3450 0    55   ~ 0
GND
Text Label 4600 3350 0    55   ~ 0
GPIO12
Text Label 4600 3250 0    55   ~ 0
GND
Text Label 4600 3150 0    55   ~ 0
ID_SC
Text Label 4600 3050 0    55   ~ 0
SPI_CE1
Text Label 4600 2950 0    55   ~ 0
SPI_CE0
Text Label 4600 2850 0    55   ~ 0
GPIO25
Text Label 4600 2750 0    55   ~ 0
GND
Text Label 4600 2650 0    55   ~ 0
GPIO24
Text Label 4600 2550 0    55   ~ 0
GPIO23
Text Label 4600 2450 0    55   ~ 0
GND
Text Label 4600 2350 0    55   ~ 0
GPIO18
Text Label 4600 2250 0    55   ~ 0
RXD
Text Label 4600 2150 0    55   ~ 0
TXD
Text Label 4600 2050 0    55   ~ 0
GND
Text Label 4600 1950 0    55   ~ 0
RPI_5V
Text Label 4600 1850 0    55   ~ 0
RPI_5V
$Comp
L power:GND #PWR036
U 1 1 5C752C7A
P 2050 4050
F 0 "#PWR036" H 2050 3800 50  0001 C CNN
F 1 "GND" H 2050 3900 50  0000 C CNN
F 2 "" H 2050 4050 50  0001 C CNN
F 3 "" H 2050 4050 50  0001 C CNN
	1    2050 4050
	1    0    0    -1  
$EndComp
$Comp
L power:GND #PWR041
U 1 1 5C752EBA
P 6750 4000
F 0 "#PWR041" H 6750 3750 50  0001 C CNN
F 1 "GND" H 6750 3850 50  0000 C CNN
F 2 "" H 6750 4000 50  0001 C CNN
F 3 "" H 6750 4000 50  0001 C CNN
	1    6750 4000
	1    0    0    -1  
$EndComp
$Comp
L power:+3V3 #PWR037
U 1 1 5C752F38
P 3700 1150
F 0 "#PWR037" H 3700 1000 50  0001 C CNN
F 1 "+3V3" H 3700 1290 50  0000 C CNN
F 2 "" H 3700 1150 50  0001 C CNN
F 3 "" H 3700 1150 50  0001 C CNN
	1    3700 1150
	1    0    0    -1  
$EndComp
$Comp
L controller-rescue:R R11
U 1 1 5C752F55
P 3700 1450
F 0 "R11" H 3800 1550 50  0000 C CNN
F 1 "inf" H 3800 1450 50  0000 C CNN
F 2 "Resistors_SMD:R_1206_HandSoldering" V 3630 1450 50  0001 C CNN
F 3 "" H 3700 1450 50  0001 C CNN
	1    3700 1450
	1    0    0    -1  
$EndComp
Text GLabel 3550 1550 1    55   Input ~ 0
SDA
Text GLabel 3450 1550 1    55   Input ~ 0
SCL
Text GLabel 5000 1550 1    55   Input ~ 0
RPI_TXD
Text GLabel 5100 1550 1    55   Input ~ 0
RPI_RXD
Text GLabel 3350 1550 1    55   Input ~ 0
1WIRE
Text GLabel 3250 1550 1    55   Input ~ 0
OT_INT
Text GLabel 3150 1550 1    55   Input ~ 0
MOSI
Text GLabel 3050 1550 1    55   Input ~ 0
MISO
Text GLabel 2950 1550 1    55   Input ~ 0
SCK
Text GLabel 5200 1550 1    55   Input ~ 0
SS_CAN
Text GLabel 5300 1550 1    55   Input ~ 0
SS_RF
$Comp
L controller-rescue:USB_A J28
U 1 1 5C75379A
P 1300 5050
F 0 "J28" H 1100 5500 50  0000 L CNN
F 1 "USB_A" H 1100 5400 50  0000 L CNN
F 2 "misc:USB_A_Socket_Horizontal_Keystone_921" H 1450 5000 50  0001 C CNN
F 3 "" H 1450 5000 50  0001 C CNN
F 4 "TME:KEYS921" H 0   0   50  0001 C CNN "Shop"
	1    1300 5050
	1    0    0    -1  
$EndComp
$Comp
L power:+5V #PWR035
U 1 1 5C753A15
P 1700 4700
F 0 "#PWR035" H 1700 4550 50  0001 C CNN
F 1 "+5V" H 1700 4840 50  0000 C CNN
F 2 "" H 1700 4700 50  0001 C CNN
F 3 "" H 1700 4700 50  0001 C CNN
	1    1700 4700
	1    0    0    -1  
$EndComp
$Comp
L power:GND #PWR032
U 1 1 5C753A90
P 1300 5600
F 0 "#PWR032" H 1300 5350 50  0001 C CNN
F 1 "GND" H 1300 5450 50  0000 C CNN
F 2 "" H 1300 5600 50  0001 C CNN
F 3 "" H 1300 5600 50  0001 C CNN
	1    1300 5600
	1    0    0    -1  
$EndComp
$Comp
L controller-rescue:Conn_02x03_Odd_Even J30
U 1 1 5C753C18
P 2450 5200
F 0 "J30" V 2550 5450 50  0000 C CNN
F 1 "Conn_02x03" V 2000 5200 50  0000 C CNN
F 2 "Pin_Headers:Pin_Header_Straight_2x03_Pitch2.54mm" H 2450 5200 50  0001 C CNN
F 3 "" H 2450 5200 50  0001 C CNN
	1    2450 5200
	0    1    -1   0   
$EndComp
$Comp
L power:+5V #PWR040
U 1 1 5C7540BB
P 6250 1150
F 0 "#PWR040" H 6250 1000 50  0001 C CNN
F 1 "+5V" H 6250 1290 50  0000 C CNN
F 2 "" H 6250 1150 50  0001 C CNN
F 3 "" H 6250 1150 50  0001 C CNN
	1    6250 1150
	1    0    0    -1  
$EndComp
$Comp
L controller-rescue:R R12
U 1 1 5C7540DF
P 6250 1400
F 0 "R12" H 6350 1500 50  0000 C CNN
F 1 "inf" H 6350 1400 50  0000 C CNN
F 2 "Resistors_SMD:R_1206_HandSoldering" V 6180 1400 50  0001 C CNN
F 3 "" H 6250 1400 50  0001 C CNN
	1    6250 1400
	1    0    0    -1  
$EndComp
$Comp
L controller-rescue:Conn_01x03 J31
U 1 1 5C754364
P 3950 5000
F 0 "J31" H 3950 5200 50  0000 C CNN
F 1 "Conn_01x03" H 3950 4800 50  0000 C CNN
F 2 "Pin_Headers:Pin_Header_Straight_1x03_Pitch2.54mm" H 3950 5000 50  0001 C CNN
F 3 "" H 3950 5000 50  0001 C CNN
	1    3950 5000
	-1   0    0    1   
$EndComp
Text GLabel 4350 4900 2    55   Input ~ 0
RPI_RXD
Text GLabel 4350 5000 2    55   Input ~ 0
RPI_TXD
$Comp
L power:GND #PWR039
U 1 1 5C755418
P 4250 5300
F 0 "#PWR039" H 4250 5050 50  0001 C CNN
F 1 "GND" H 4250 5150 50  0000 C CNN
F 2 "" H 4250 5300 50  0001 C CNN
F 3 "" H 4250 5300 50  0001 C CNN
	1    4250 5300
	1    0    0    -1  
$EndComp
$Comp
L controller-rescue:Jack-DC J27
U 1 1 5C7555F3
P 1200 6600
F 0 "J27" H 1200 6400 50  0000 C CNN
F 1 "Jack-DC" H 1250 6850 50  0000 C CNN
F 2 "Connectors:BARREL_JACK" H 1250 6560 50  0001 C CNN
F 3 "" H 1250 6560 50  0001 C CNN
F 4 "TME:NEB21R" H 0   0   50  0001 C CNN "Shop"
	1    1200 6600
	1    0    0    -1  
$EndComp
$Comp
L power:GND #PWR033
U 1 1 5C75588E
P 1600 6800
F 0 "#PWR033" H 1600 6550 50  0001 C CNN
F 1 "GND" H 1600 6650 50  0000 C CNN
F 2 "" H 1600 6800 50  0001 C CNN
F 3 "" H 1600 6800 50  0001 C CNN
	1    1600 6800
	1    0    0    -1  
$EndComp
$Comp
L power:+5V #PWR034
U 1 1 5C75592F
P 1650 6300
F 0 "#PWR034" H 1650 6150 50  0001 C CNN
F 1 "+5V" H 1650 6440 50  0000 C CNN
F 2 "" H 1650 6300 50  0001 C CNN
F 3 "" H 1650 6300 50  0001 C CNN
	1    1650 6300
	1    0    0    -1  
$EndComp
Text GLabel 5600 4950 1    55   Input ~ 0
1WIRE
$Comp
L power:+3V3 #PWR044
U 1 1 5C755E3E
P 6300 4900
F 0 "#PWR044" H 6300 4750 50  0001 C CNN
F 1 "+3V3" H 6300 5040 50  0000 C CNN
F 2 "" H 6300 4900 50  0001 C CNN
F 3 "" H 6300 4900 50  0001 C CNN
	1    6300 4900
	1    0    0    -1  
$EndComp
$Comp
L controller-rescue:R R13
U 1 1 5C755E66
P 5950 5150
F 0 "R13" V 5850 5150 50  0000 C CNN
F 1 "1k" V 6050 5150 50  0000 C CNN
F 2 "Resistors_SMD:R_1206_HandSoldering" V 5880 5150 50  0001 C CNN
F 3 "" H 5950 5150 50  0001 C CNN
F 4 "GME:900-033" H -2200 3750 50  0001 C CNN "Shop"
	1    5950 5150
	0    1    1    0   
$EndComp
Text GLabel 7700 5550 0    55   Input ~ 0
CAN_H
Text GLabel 7700 5450 0    55   Input ~ 0
CAN_L
$Comp
L controller-rescue:Conn_01x08 J34
U 1 1 5C75B680
P 8250 5900
F 0 "J34" V 8350 5850 50  0000 C CNN
F 1 "Conn_01x08" V 8450 5850 50  0000 C CNN
F 2 "Pin_Headers:Pin_Header_Straight_1x08_Pitch2.54mm" H 8250 5900 50  0001 C CNN
F 3 "" H 8250 5900 50  0001 C CNN
	1    8250 5900
	0    -1   1    0   
$EndComp
Text GLabel 7700 5150 0    55   Input ~ 0
1WIRE
$Comp
L power:+3V3 #PWR042
U 1 1 5C75CF32
P 7400 4750
F 0 "#PWR042" H 7400 4600 50  0001 C CNN
F 1 "+3V3" H 7400 4890 50  0000 C CNN
F 2 "" H 7400 4750 50  0001 C CNN
F 3 "" H 7400 4750 50  0001 C CNN
	1    7400 4750
	1    0    0    -1  
$EndComp
$Comp
L power:+5V #PWR043
U 1 1 5C75D002
P 7650 4750
F 0 "#PWR043" H 7650 4600 50  0001 C CNN
F 1 "+5V" H 7650 4890 50  0000 C CNN
F 2 "" H 7650 4750 50  0001 C CNN
F 3 "" H 7650 4750 50  0001 C CNN
	1    7650 4750
	1    0    0    -1  
$EndComp
$Comp
L power:GND #PWR046
U 1 1 5C75D0D4
P 9950 5850
F 0 "#PWR046" H 9950 5600 50  0001 C CNN
F 1 "GND" H 9950 5700 50  0000 C CNN
F 2 "" H 9950 5850 50  0001 C CNN
F 3 "" H 9950 5850 50  0001 C CNN
	1    9950 5850
	1    0    0    -1  
$EndComp
Text GLabel 5400 1550 1    55   Input ~ 0
CAN_INT
Wire Wire Line
	4050 1850 3700 1850
Wire Wire Line
	2000 1950 3550 1950
Wire Wire Line
	4050 2050 3450 2050
Wire Wire Line
	2000 2150 3350 2150
Wire Wire Line
	4050 2250 2050 2250
Wire Wire Line
	2000 2350 3250 2350
Wire Wire Line
	4050 2450 2000 2450
Wire Wire Line
	2000 2550 4050 2550
Wire Wire Line
	4050 2650 3700 2650
Wire Wire Line
	2000 2750 3150 2750
Wire Wire Line
	4050 2850 3050 2850
Wire Wire Line
	2000 2950 2950 2950
Wire Wire Line
	4050 3050 2050 3050
Wire Wire Line
	2000 3150 4050 3150
Wire Wire Line
	4050 3250 2850 3250
Wire Wire Line
	2000 3350 4050 3350
Wire Wire Line
	4050 3450 2000 3450
Wire Wire Line
	2000 3550 4050 3550
Wire Wire Line
	4050 3650 2000 3650
Wire Wire Line
	2000 3750 2050 3750
Wire Wire Line
	6800 1850 6250 1850
Wire Wire Line
	4550 1950 6250 1950
Wire Wire Line
	6800 2050 6750 2050
Wire Wire Line
	4550 2150 5000 2150
Wire Wire Line
	4550 2250 5100 2250
Wire Wire Line
	6800 2350 4550 2350
Wire Wire Line
	4550 2450 6750 2450
Wire Wire Line
	6800 2550 5500 2550
Wire Wire Line
	4550 2650 5600 2650
Wire Wire Line
	6800 2750 6750 2750
Wire Wire Line
	4550 2850 5700 2850
Wire Wire Line
	6800 2950 5200 2950
Wire Wire Line
	4550 3050 5300 3050
Wire Wire Line
	6800 3150 4550 3150
Wire Wire Line
	4550 3250 6750 3250
Wire Wire Line
	6800 3350 5400 3350
Wire Wire Line
	4550 3450 6750 3450
Wire Wire Line
	6800 3550 4550 3550
Wire Wire Line
	4550 3650 6800 3650
Wire Wire Line
	6800 3750 4550 3750
Wire Wire Line
	2050 2250 2050 3050
Connection ~ 2050 3750
Connection ~ 2050 3050
Connection ~ 2050 2250
Wire Wire Line
	6750 2050 6750 2450
Connection ~ 6750 2450
Connection ~ 6750 2050
Connection ~ 6750 2750
Connection ~ 6750 3250
Connection ~ 6750 3450
Wire Wire Line
	3700 1150 3700 1300
Wire Wire Line
	3700 1600 3700 1850
Connection ~ 3700 1850
Wire Wire Line
	3550 1550 3550 1950
Connection ~ 3550 1950
Wire Wire Line
	3450 1550 3450 2050
Connection ~ 3450 2050
Connection ~ 3700 2650
Wire Wire Line
	5000 1550 5000 2150
Connection ~ 5000 2150
Wire Wire Line
	5100 1550 5100 2250
Connection ~ 5100 2250
Wire Wire Line
	3350 1550 3350 2150
Connection ~ 3350 2150
Wire Wire Line
	3250 1550 3250 2350
Connection ~ 3250 2350
Wire Wire Line
	3150 1550 3150 2750
Connection ~ 3150 2750
Wire Wire Line
	3050 1550 3050 2850
Connection ~ 3050 2850
Wire Wire Line
	2950 1550 2950 2950
Connection ~ 2950 2950
Wire Wire Line
	5200 1550 5200 2950
Connection ~ 5200 2950
Wire Wire Line
	5300 1550 5300 3050
Connection ~ 5300 3050
Wire Wire Line
	1600 4850 1700 4850
Wire Wire Line
	1700 4850 1700 4700
Wire Wire Line
	1300 5600 1300 5550
Wire Wire Line
	1200 5550 1300 5550
Wire Wire Line
	1200 5550 1200 5450
Connection ~ 1300 5550
Wire Wire Line
	2350 4850 2350 4900
Connection ~ 1700 4850
Wire Wire Line
	2450 4850 2450 4900
Connection ~ 2350 4850
Wire Wire Line
	2550 4850 2550 4900
Connection ~ 2450 4850
Wire Wire Line
	2550 5550 2550 5400
Wire Wire Line
	2450 5400 2450 5550
Connection ~ 2450 5550
Wire Wire Line
	2350 5400 2350 5550
Connection ~ 2350 5550
Wire Wire Line
	6250 1150 6250 1250
Wire Wire Line
	6250 1550 6250 1850
Connection ~ 6250 1850
Connection ~ 6250 1950
Wire Wire Line
	4350 5000 4150 5000
Wire Wire Line
	4150 4900 4350 4900
Wire Wire Line
	4250 5300 4250 5100
Wire Wire Line
	4250 5100 4150 5100
Wire Wire Line
	1600 6600 1600 6700
Wire Wire Line
	1600 6700 1500 6700
Wire Wire Line
	1500 6500 1650 6500
Wire Wire Line
	6100 5150 6300 5150
Wire Wire Line
	6300 5150 6300 4900
Wire Wire Line
	5800 5150 5600 5150
Wire Wire Line
	5600 5150 5600 4950
Wire Wire Line
	7700 5550 8650 5550
Wire Wire Line
	7700 5450 8550 5450
Wire Wire Line
	8450 5350 9400 5350
Wire Wire Line
	8350 5250 9300 5250
Wire Wire Line
	7700 5150 8250 5150
Wire Wire Line
	7400 5050 8150 5050
Wire Wire Line
	7650 4950 8050 4950
Wire Wire Line
	7950 4850 8900 4850
Wire Wire Line
	7950 5700 7950 4850
Connection ~ 8900 4850
Wire Wire Line
	8050 4950 8050 5700
Connection ~ 9000 4950
Wire Wire Line
	8150 5700 8150 5050
Connection ~ 9100 5050
Wire Wire Line
	8250 5150 8250 5700
Connection ~ 9200 5150
Wire Wire Line
	8350 5700 8350 5250
Connection ~ 9300 5250
Wire Wire Line
	8450 5350 8450 5700
Connection ~ 9400 5350
Wire Wire Line
	8550 5700 8550 5450
Connection ~ 9500 5450
Wire Wire Line
	8650 5550 8650 5700
Connection ~ 9600 5550
Connection ~ 8650 5550
Connection ~ 8550 5450
Connection ~ 8250 5150
Wire Wire Line
	7400 5050 7400 4750
Connection ~ 8150 5050
Wire Wire Line
	7650 4750 7650 4950
Connection ~ 8050 4950
Wire Wire Line
	9950 4850 9950 5250
Connection ~ 9950 5350
Connection ~ 9950 5250
Connection ~ 9950 4850
Wire Wire Line
	5400 1550 5400 3350
Connection ~ 5400 3350
Text GLabel 2850 1550 1    55   Input ~ 0
OT_RELAY
Wire Wire Line
	2850 1550 2850 3250
Connection ~ 2850 3250
Text GLabel 5500 1550 1    55   Input ~ 0
RF_DIO0
Text GLabel 5600 1550 1    55   Input ~ 0
RF_DIO2
Wire Wire Line
	5500 1550 5500 2550
Connection ~ 5500 2550
Wire Wire Line
	5600 1550 5600 2650
Connection ~ 5600 2650
Text GLabel 5700 1550 1    55   Input ~ 0
RF_RST
Wire Wire Line
	5700 1550 5700 2850
Connection ~ 5700 2850
NoConn ~ 1600 5050
NoConn ~ 1600 5150
$Comp
L controller-rescue:Conn_01x08 J36
U 1 1 5C7A6A75
P 10250 5150
F 0 "J36" H 10400 5100 50  0000 C CNN
F 1 "Conn_01x08" H 10550 5000 50  0000 C CNN
F 2 "Pin_Headers:Pin_Header_Straight_1x08_Pitch2.54mm" H 10250 5150 50  0001 C CNN
F 3 "" H 10250 5150 50  0001 C CNN
	1    10250 5150
	1    0    0    -1  
$EndComp
Wire Wire Line
	1650 6500 1650 6300
Wire Wire Line
	1500 6600 1600 6600
Connection ~ 1600 6700
$Comp
L controller-rescue:Mounting_Hole_PAD MK1
U 1 1 5C852137
P 3250 6500
F 0 "MK1" H 3250 6750 50  0000 C CNN
F 1 "Hole_M3" H 3250 6675 50  0000 C CNN
F 2 "Connectors:1pin" H 3250 6500 50  0001 C CNN
F 3 "" H 3250 6500 50  0001 C CNN
	1    3250 6500
	1    0    0    -1  
$EndComp
$Comp
L controller-rescue:Mounting_Hole_PAD MK2
U 1 1 5C852226
P 3600 6500
F 0 "MK2" H 3600 6750 50  0000 C CNN
F 1 "Hole_M3" H 3600 6675 50  0000 C CNN
F 2 "Connectors:1pin" H 3600 6500 50  0001 C CNN
F 3 "" H 3600 6500 50  0001 C CNN
	1    3600 6500
	1    0    0    -1  
$EndComp
$Comp
L controller-rescue:Mounting_Hole_PAD MK3
U 1 1 5C852275
P 3950 6500
F 0 "MK3" H 3950 6750 50  0000 C CNN
F 1 "Hole_M3" H 3950 6675 50  0000 C CNN
F 2 "Connectors:1pin" H 3950 6500 50  0001 C CNN
F 3 "" H 3950 6500 50  0001 C CNN
	1    3950 6500
	1    0    0    -1  
$EndComp
$Comp
L controller-rescue:Mounting_Hole_PAD MK4
U 1 1 5C8522BF
P 4300 6500
F 0 "MK4" H 4300 6750 50  0000 C CNN
F 1 "Hole_M3" H 4300 6675 50  0000 C CNN
F 2 "Connectors:1pin" H 4300 6500 50  0001 C CNN
F 3 "" H 4300 6500 50  0001 C CNN
	1    4300 6500
	1    0    0    -1  
$EndComp
$Comp
L controller-rescue:Mounting_Hole_PAD MK5
U 1 1 5C85230C
P 4650 6500
F 0 "MK5" H 4650 6750 50  0000 C CNN
F 1 "Hole_M3" H 4650 6675 50  0000 C CNN
F 2 "Connectors:1pin" H 4650 6500 50  0001 C CNN
F 3 "" H 4650 6500 50  0001 C CNN
	1    4650 6500
	1    0    0    -1  
$EndComp
Wire Wire Line
	3250 6600 3250 6700
Wire Wire Line
	3250 6700 3600 6700
Wire Wire Line
	3600 6700 3600 6600
Wire Wire Line
	3950 6600 3950 6700
Connection ~ 3600 6700
Wire Wire Line
	4300 6700 4300 6600
Connection ~ 3950 6700
Wire Wire Line
	4650 6700 4650 6600
Connection ~ 4300 6700
$Comp
L power:GND #PWR038
U 1 1 5C852643
P 3950 6900
F 0 "#PWR038" H 3950 6650 50  0001 C CNN
F 1 "GND" H 3950 6750 50  0000 C CNN
F 2 "" H 3950 6900 50  0001 C CNN
F 3 "" H 3950 6900 50  0001 C CNN
	1    3950 6900
	1    0    0    -1  
$EndComp
$Comp
L controller-rescue:RJ45 J17
U 1 1 5C86DA83
P 9250 4200
F 0 "J17" H 9450 4700 50  0000 C CNN
F 1 "RJ45" H 9100 4700 50  0000 C CNN
F 2 "misc:RJ45_8_SH" H 9250 4200 50  0001 C CNN
F 3 "" H 9250 4200 50  0001 C CNN
F 4 "TME:MX-85505-5113" H 0   0   50  0001 C CNN "Shop"
	1    9250 4200
	1    0    0    -1  
$EndComp
$Comp
L power:GND #PWR045
U 1 1 5C86E147
P 9900 4050
F 0 "#PWR045" H 9900 3800 50  0001 C CNN
F 1 "GND" H 9900 3900 50  0000 C CNN
F 2 "" H 9900 4050 50  0001 C CNN
F 3 "" H 9900 4050 50  0001 C CNN
	1    9900 4050
	1    0    0    -1  
$EndComp
Wire Wire Line
	9800 3850 9900 3850
Wire Wire Line
	9900 3850 9900 4050
Wire Wire Line
	8900 4850 8900 4650
Wire Wire Line
	9000 4650 9000 4950
Wire Wire Line
	9100 5050 9100 4650
Wire Wire Line
	9200 4650 9200 5150
Wire Wire Line
	9300 5250 9300 4650
Wire Wire Line
	9400 4650 9400 5350
Wire Wire Line
	9500 5450 9500 4650
Wire Wire Line
	9600 5550 9600 4650
$Comp
L controller-rescue:Conn_02x02_Odd_Even J35
U 1 1 5C86F60A
P 3050 5200
F 0 "J35" H 3100 5300 50  0000 C CNN
F 1 "Conn_02x02" V 2600 5150 50  0000 C CNN
F 2 "Pin_Headers:Pin_Header_Straight_2x02_Pitch2.54mm" H 3050 5200 50  0001 C CNN
F 3 "" H 3050 5200 50  0001 C CNN
	1    3050 5200
	0    1    -1   0   
$EndComp
Wire Wire Line
	2950 5550 2950 5400
Connection ~ 2550 5550
Wire Wire Line
	3050 5550 3050 5400
Connection ~ 2950 5550
Wire Wire Line
	3050 4850 3050 4900
Connection ~ 2550 4850
Wire Wire Line
	2950 4900 2950 4850
Connection ~ 2950 4850
Wire Wire Line
	2050 3750 4050 3750
Wire Wire Line
	2050 3750 2050 4050
Wire Wire Line
	2050 3050 2000 3050
Wire Wire Line
	2050 3050 2050 3750
Wire Wire Line
	2050 2250 2000 2250
Wire Wire Line
	6750 2450 6800 2450
Wire Wire Line
	6750 2450 6750 2750
Wire Wire Line
	6750 2050 4550 2050
Wire Wire Line
	6750 2750 4550 2750
Wire Wire Line
	6750 2750 6750 3250
Wire Wire Line
	6750 3250 6800 3250
Wire Wire Line
	6750 3250 6750 3450
Wire Wire Line
	6750 3450 6800 3450
Wire Wire Line
	6750 3450 6750 4000
Wire Wire Line
	3700 1850 2000 1850
Wire Wire Line
	3700 1850 3700 2650
Wire Wire Line
	3550 1950 4050 1950
Wire Wire Line
	3450 2050 2000 2050
Wire Wire Line
	3700 2650 2000 2650
Wire Wire Line
	5000 2150 6800 2150
Wire Wire Line
	5100 2250 6800 2250
Wire Wire Line
	3350 2150 4050 2150
Wire Wire Line
	3250 2350 4050 2350
Wire Wire Line
	3150 2750 4050 2750
Wire Wire Line
	3050 2850 2000 2850
Wire Wire Line
	2950 2950 4050 2950
Wire Wire Line
	5200 2950 4550 2950
Wire Wire Line
	5300 3050 6800 3050
Wire Wire Line
	1300 5550 1300 5450
Wire Wire Line
	1300 5550 2350 5550
Wire Wire Line
	1700 4850 2350 4850
Wire Wire Line
	2350 4850 2450 4850
Wire Wire Line
	2450 4850 2550 4850
Wire Wire Line
	2450 5550 2550 5550
Wire Wire Line
	2350 5550 2450 5550
Wire Wire Line
	6250 1850 4550 1850
Wire Wire Line
	6250 1850 6250 1950
Wire Wire Line
	6250 1950 6800 1950
Wire Wire Line
	8900 4850 9950 4850
Wire Wire Line
	9000 4950 10050 4950
Wire Wire Line
	9100 5050 10050 5050
Wire Wire Line
	9200 5150 10050 5150
Wire Wire Line
	9300 5250 9950 5250
Wire Wire Line
	9400 5350 9950 5350
Wire Wire Line
	9500 5450 10050 5450
Wire Wire Line
	9600 5550 10050 5550
Wire Wire Line
	8650 5550 9600 5550
Wire Wire Line
	8550 5450 9500 5450
Wire Wire Line
	8250 5150 9200 5150
Wire Wire Line
	8150 5050 9100 5050
Wire Wire Line
	8050 4950 9000 4950
Wire Wire Line
	9950 5350 9950 5850
Wire Wire Line
	9950 5350 10050 5350
Wire Wire Line
	9950 5250 9950 5350
Wire Wire Line
	9950 5250 10050 5250
Wire Wire Line
	9950 4850 10050 4850
Wire Wire Line
	5400 3350 4550 3350
Wire Wire Line
	2850 3250 2000 3250
Wire Wire Line
	5500 2550 4550 2550
Wire Wire Line
	5600 2650 6800 2650
Wire Wire Line
	5700 2850 6800 2850
Wire Wire Line
	1600 6700 1600 6800
Wire Wire Line
	3600 6700 3950 6700
Wire Wire Line
	3950 6700 3950 6900
Wire Wire Line
	3950 6700 4300 6700
Wire Wire Line
	4300 6700 4650 6700
Wire Wire Line
	2550 5550 2950 5550
Wire Wire Line
	2950 5550 3050 5550
Wire Wire Line
	2550 4850 2950 4850
Wire Wire Line
	2950 4850 3050 4850
Text GLabel 6050 6800 3    55   Input ~ 0
SCL
Text GLabel 5800 6800 3    55   Input ~ 0
SDA
$Comp
L controller-rescue:R R16
U 1 1 5C88D984
P 5800 6500
F 0 "R16" H 5950 6450 50  0000 C CNN
F 1 "1k" H 5950 6550 50  0000 C CNN
F 2 "Resistor_SMD:R_1206_3216Metric_Pad1.42x1.75mm_HandSolder" V 5730 6500 50  0001 C CNN
F 3 "" H 5800 6500 50  0001 C CNN
F 4 "GME:900-033" H -3300 4250 50  0001 C CNN "Shop"
	1    5800 6500
	-1   0    0    1   
$EndComp
$Comp
L controller-rescue:R R17
U 1 1 5C88DA16
P 6050 6500
F 0 "R17" H 5950 6450 50  0000 C CNN
F 1 "1k" H 5950 6550 50  0000 C CNN
F 2 "Resistor_SMD:R_1206_3216Metric_Pad1.42x1.75mm_HandSolder" V 5980 6500 50  0001 C CNN
F 3 "" H 6050 6500 50  0001 C CNN
F 4 "GME:900-033" H -3300 4250 50  0001 C CNN "Shop"
	1    6050 6500
	-1   0    0    1   
$EndComp
Wire Wire Line
	5800 6800 5800 6650
Wire Wire Line
	6050 6800 6050 6650
$Comp
L power:+3V3 #PWR0101
U 1 1 5C8A204D
P 5800 6100
F 0 "#PWR0101" H 5800 5950 50  0001 C CNN
F 1 "+3V3" H 5815 6273 50  0000 C CNN
F 2 "" H 5800 6100 50  0001 C CNN
F 3 "" H 5800 6100 50  0001 C CNN
	1    5800 6100
	1    0    0    -1  
$EndComp
Wire Wire Line
	5800 6350 5800 6200
Wire Wire Line
	5800 6200 6050 6200
Wire Wire Line
	6050 6200 6050 6350
Connection ~ 5800 6200
Wire Wire Line
	5800 6200 5800 6100
$Comp
L controller-rescue:AZ1117-3.3 U?
U 1 1 5CE17ECB
P 9100 2000
AR Path="/5C74D590/5CE17ECB" Ref="U?"  Part="1" 
AR Path="/5C7522E9/5CE17ECB" Ref="U?"  Part="1" 
F 0 "U?" H 8950 2125 50  0000 C CNN
F 1 "AZ1117-3.3" H 9100 2125 50  0000 L CNN
F 2 "TO_SOT_Packages_SMD:SOT-223-3Lead_TabPin2" H 9100 2250 50  0001 C CIN
F 3 "" H 9100 2000 50  0001 C CNN
F 4 "TME:AZ1117CH-3.3TRG1" H 4050 -1350 50  0001 C CNN "Shop"
	1    9100 2000
	1    0    0    -1  
$EndComp
$Comp
L power:+5V #PWR?
U 1 1 5CE17ED2
P 8250 1850
AR Path="/5C74D590/5CE17ED2" Ref="#PWR?"  Part="1" 
AR Path="/5C7522E9/5CE17ED2" Ref="#PWR?"  Part="1" 
F 0 "#PWR?" H 8250 1700 50  0001 C CNN
F 1 "+5V" H 8250 1990 50  0000 C CNN
F 2 "" H 8250 1850 50  0001 C CNN
F 3 "" H 8250 1850 50  0001 C CNN
	1    8250 1850
	1    0    0    -1  
$EndComp
Wire Wire Line
	8800 2000 8250 2000
Wire Wire Line
	8250 1850 8250 2000
$Comp
L power:+3V3 #PWR?
U 1 1 5CE17EDA
P 9900 1850
AR Path="/5C74D590/5CE17EDA" Ref="#PWR?"  Part="1" 
AR Path="/5C7522E9/5CE17EDA" Ref="#PWR?"  Part="1" 
F 0 "#PWR?" H 9900 1700 50  0001 C CNN
F 1 "+3V3" H 9900 1990 50  0000 C CNN
F 2 "" H 9900 1850 50  0001 C CNN
F 3 "" H 9900 1850 50  0001 C CNN
	1    9900 1850
	1    0    0    -1  
$EndComp
Wire Wire Line
	9900 2000 9400 2000
Wire Wire Line
	9900 1850 9900 2000
$Comp
L controller-rescue:CP C?
U 1 1 5CE17EE3
P 8250 2250
AR Path="/5C74D590/5CE17EE3" Ref="C?"  Part="1" 
AR Path="/5C7522E9/5CE17EE3" Ref="C?"  Part="1" 
F 0 "C?" H 8275 2350 50  0000 L CNN
F 1 "10u" H 8275 2150 50  0000 L CNN
F 2 "Capacitors_SMD:CP_Elec_4x5.3" H 8288 2100 50  0001 C CNN
F 3 "" H 8250 2250 50  0001 C CNN
F 4 "TME:RC1C106M04005VR" H 4050 -1350 50  0001 C CNN "Shop"
	1    8250 2250
	1    0    0    -1  
$EndComp
$Comp
L controller-rescue:CP C?
U 1 1 5CE17EEB
P 9900 2250
AR Path="/5C74D590/5CE17EEB" Ref="C?"  Part="1" 
AR Path="/5C7522E9/5CE17EEB" Ref="C?"  Part="1" 
F 0 "C?" H 9925 2350 50  0000 L CNN
F 1 "22u" H 9925 2150 50  0000 L CNN
F 2 "Capacitors_SMD:CP_Elec_4x5.3" H 9938 2100 50  0001 C CNN
F 3 "" H 9900 2250 50  0001 C CNN
F 4 "TME:RC0J226M04005VR" H 4050 -1350 50  0001 C CNN "Shop"
	1    9900 2250
	1    0    0    -1  
$EndComp
Connection ~ 8250 2000
Connection ~ 9900 2000
$Comp
L power:GND #PWR?
U 1 1 5CE17EF4
P 9100 2650
AR Path="/5C74D590/5CE17EF4" Ref="#PWR?"  Part="1" 
AR Path="/5C7522E9/5CE17EF4" Ref="#PWR?"  Part="1" 
F 0 "#PWR?" H 9100 2400 50  0001 C CNN
F 1 "GND" H 9100 2500 50  0000 C CNN
F 2 "" H 9100 2650 50  0001 C CNN
F 3 "" H 9100 2650 50  0001 C CNN
	1    9100 2650
	1    0    0    -1  
$EndComp
Wire Wire Line
	9100 2300 9100 2500
Wire Wire Line
	8250 2500 9100 2500
Wire Wire Line
	8250 2500 8250 2400
Connection ~ 9100 2500
Wire Wire Line
	9900 2500 9900 2400
Wire Wire Line
	8250 2000 8250 2100
Wire Wire Line
	9900 2000 9900 2100
Wire Wire Line
	9100 2500 9100 2650
Wire Wire Line
	9100 2500 9900 2500
$EndSCHEMATC
