EESchema Schematic File Version 4
LIBS:controller-cache
EELAYER 26 0
EELAYER END
$Descr A4 11693 8268
encoding utf-8
Sheet 5 6
Title ""
Date ""
Rev ""
Comp ""
Comment1 ""
Comment2 ""
Comment3 ""
Comment4 ""
$EndDescr
$Comp
L controller-rescue:AZ1117-3.3 U6
U 1 1 5C74D59B
P 5050 3350
F 0 "U6" H 4900 3475 50  0000 C CNN
F 1 "AZ1117-3.3" H 5050 3475 50  0000 L CNN
F 2 "TO_SOT_Packages_SMD:SOT-223-3Lead_TabPin2" H 5050 3600 50  0001 C CIN
F 3 "" H 5050 3350 50  0001 C CNN
F 4 "TME:AZ1117CH-3.3TRG1" H 0   0   50  0001 C CNN "Shop"
	1    5050 3350
	1    0    0    -1  
$EndComp
$Comp
L power:+5V #PWR029
U 1 1 5C74D739
P 4200 3200
F 0 "#PWR029" H 4200 3050 50  0001 C CNN
F 1 "+5V" H 4200 3340 50  0000 C CNN
F 2 "" H 4200 3200 50  0001 C CNN
F 3 "" H 4200 3200 50  0001 C CNN
	1    4200 3200
	1    0    0    -1  
$EndComp
Wire Wire Line
	4750 3350 4200 3350
Wire Wire Line
	4200 3200 4200 3450
$Comp
L power:+3V3 #PWR031
U 1 1 5C74D770
P 5850 3200
F 0 "#PWR031" H 5850 3050 50  0001 C CNN
F 1 "+3V3" H 5850 3340 50  0000 C CNN
F 2 "" H 5850 3200 50  0001 C CNN
F 3 "" H 5850 3200 50  0001 C CNN
	1    5850 3200
	1    0    0    -1  
$EndComp
Wire Wire Line
	5850 3350 5350 3350
Wire Wire Line
	5850 3200 5850 3450
$Comp
L controller-rescue:CP C10
U 1 1 5C74D7A2
P 4200 3600
F 0 "C10" H 4225 3700 50  0000 L CNN
F 1 "10u" H 4225 3500 50  0000 L CNN
F 2 "Capacitors_SMD:CP_Elec_4x5.3" H 4238 3450 50  0001 C CNN
F 3 "" H 4200 3600 50  0001 C CNN
F 4 "TME:RC1C106M04005VR" H 0   0   50  0001 C CNN "Shop"
	1    4200 3600
	1    0    0    -1  
$EndComp
$Comp
L controller-rescue:CP C11
U 1 1 5C74D7FD
P 5850 3600
F 0 "C11" H 5875 3700 50  0000 L CNN
F 1 "22u" H 5875 3500 50  0000 L CNN
F 2 "Capacitors_SMD:CP_Elec_4x5.3" H 5888 3450 50  0001 C CNN
F 3 "" H 5850 3600 50  0001 C CNN
F 4 "TME:RC0J226M04005VR" H 0   0   50  0001 C CNN "Shop"
	1    5850 3600
	1    0    0    -1  
$EndComp
Connection ~ 4200 3350
Connection ~ 5850 3350
$Comp
L power:GND #PWR030
U 1 1 5C74D85C
P 5050 4000
F 0 "#PWR030" H 5050 3750 50  0001 C CNN
F 1 "GND" H 5050 3850 50  0000 C CNN
F 2 "" H 5050 4000 50  0001 C CNN
F 3 "" H 5050 4000 50  0001 C CNN
	1    5050 4000
	1    0    0    -1  
$EndComp
Wire Wire Line
	5050 3650 5050 4000
Wire Wire Line
	4200 3850 5850 3850
Wire Wire Line
	4200 3850 4200 3750
Connection ~ 5050 3850
Wire Wire Line
	5850 3850 5850 3750
$EndSCHEMATC
